cordic_tb.vcd
$date
  Sat Mar 01 20:18:07 2025
$end
$version
  GHDL v0
$end
$timescale
  1 fs
$end
$scope module standard $end
$upscope $end
$scope module std_logic_1164 $end
$upscope $end
$scope module numeric_std $end
$upscope $end
$scope module math_real $end
$upscope $end
$scope module textio $end
$upscope $end
$scope module utils $end
$upscope $end
$scope module cordic_tb $end
$var reg 1 ! clk $end
$var reg 1 " rst $end
$var reg 1 # req $end
$var reg 1 $ rot0_vec1 $end
$var reg 16 % x_in[15:0] $end
$var reg 16 & y_in[15:0] $end
$var reg 16 ' z_in[15:0] $end
$var reg 16 ( x_out[15:0] $end
$var reg 16 ) y_out[15:0] $end
$var reg 16 * z_out[15:0] $end
$var reg 1 + cordic_busy $end
$var integer 32 , count $end
$scope module dut_cordic $end
$var reg 16 - x0[15:0] $end
$var reg 16 . y0[15:0] $end
$var reg 16 / z0[15:0] $end
$var reg 16 0 xr[15:0] $end
$var reg 16 1 yr[15:0] $end
$var reg 16 2 zr[15:0] $end
$var reg 1 3 busy $end
$var reg 1 4 start $end
$var reg 1 5 clk $end
$var reg 1 6 mode $end
$var integer 32 7 i $end
$var reg 16 8 x_pre[15:0] $end
$var reg 16 9 y_pre[15:0] $end
$var reg 16 : z_pre[15:0] $end
$var reg 16 ; x_in[15:0] $end
$var reg 16 < y_in[15:0] $end
$var reg 16 = z_in[15:0] $end
$var reg 16 > x_act[15:0] $end
$var reg 16 ? y_act[15:0] $end
$var reg 16 @ z_act[15:0] $end
$var reg 16 A x_next[15:0] $end
$var reg 16 B y_next[15:0] $end
$var reg 16 C z_next[15:0] $end
$var reg 16 D beta[15:0] $end
$var reg 1 E count_en $end
$scope module precordic $end
$var reg 16 F x_in[15:0] $end
$var reg 16 G y_in[15:0] $end
$var reg 16 H z_in[15:0] $end
$var reg 16 I x_out[15:0] $end
$var reg 16 J y_out[15:0] $end
$var reg 16 K z_out[15:0] $end
$var reg 1 L mode $end
$var reg 16 M x_in_2c[15:0] $end
$var reg 16 N y_in_2c[15:0] $end
$var reg 16 O z_in_inv[15:0] $end
$var reg 16 P x_rot[15:0] $end
$var reg 16 Q y_rot[15:0] $end
$var reg 16 R z_rot[15:0] $end
$var reg 16 S x_vec[15:0] $end
$var reg 16 T y_vec[15:0] $end
$var reg 16 U z_vec[15:0] $end
$upscope $end
$scope module counter $end
$var reg 1 V clk $end
$var reg 1 W ena $end
$var reg 1 X rst $end
$var integer 32 Y count $end
$var integer 32 Z aux $end
$upscope $end
$scope module cordic_stage $end
$var reg 16 [ x_in[15:0] $end
$var reg 16 \ y_in[15:0] $end
$var reg 16 ] z_in[15:0] $end
$var reg 16 ^ x_out[15:0] $end
$var reg 16 _ y_out[15:0] $end
$var reg 16 ` z_out[15:0] $end
$var reg 16 a beta[15:0] $end
$var integer 32 b shift $end
$var reg 1 c mode $end
$var reg 1 d di $end
$upscope $end
$scope module reg_x $end
$var reg 16 e di[15:0] $end
$var reg 16 f qo[15:0] $end
$var reg 1 g clk $end
$var reg 1 h rst $end
$var reg 1 i ena $end
$upscope $end
$scope module reg_y $end
$var reg 16 j di[15:0] $end
$var reg 16 k qo[15:0] $end
$var reg 1 l clk $end
$var reg 1 m rst $end
$var reg 1 n ena $end
$upscope $end
$scope module reg_z $end
$var reg 16 o di[15:0] $end
$var reg 16 p qo[15:0] $end
$var reg 1 q clk $end
$var reg 1 r rst $end
$var reg 1 s ena $end
$upscope $end
$upscope $end
$upscope $end
$enddefinitions $end
#0
0!
0"
0#
0$
bUUUUUUUUUUUUUUUU %
bUUUUUUUUUUUUUUUU &
bUUUUUUUUUUUUUUUU '
bUUUUUUUUUUUUUUUU (
bUUUUUUUUUUUUUUUU )
bUUUUUUUUUUUUUUUU *
U+
b0 ,
bUUUUUUUUUUUUUUUU -
bUUUUUUUUUUUUUUUU .
bUUUUUUUUUUUUUUUU /
bUUUUUUUUUUUUUUUU 0
bUUUUUUUUUUUUUUUU 1
bUUUUUUUUUUUUUUUU 2
U3
04
05
06
b0 7
bUUUUUUUUUUUUUUUU 8
bUUUUUUUUUUUUUUUU 9
bUUUUUUUUUUUUUUUU :
bUUUUUUUUUUUUUUUU ;
bUUUUUUUUUUUUUUUU <
bUUUUUUUUUUUUUUUU =
bUUUUUUUUUUUUUUUU >
bUUUUUUUUUUUUUUUU ?
bUUUUUUUUUUUUUUUU @
bXXXXXXXXXXXXXXXX A
bXXXXXXXXXXXXXXXX B
bXXXXXXXXXXXXXXXX C
b0000000000000000 D
UE
bUUUUUUUUUUUUUUUU F
bUUUUUUUUUUUUUUUU G
bUUUUUUUUUUUUUUUU H
bUUUUUUUUUUUUUUUU I
bUUUUUUUUUUUUUUUU J
bUUUUUUUUUUUUUUUU K
0L
bXXXXXXXXXXXXXXXX M
bXXXXXXXXXXXXXXXX N
bUUUUUUUUUUUUUUUU O
bUUUUUUUUUUUUUUUU P
bUUUUUUUUUUUUUUUU Q
bUUUUUUUUUUUUUUUU R
bUUUUUUUUUUUUUUUU S
bUUUUUUUUUUUUUUUU T
bUUUUUUUUUUUUUUUU U
0V
UW
0X
b0 Y
b0 Z
bUUUUUUUUUUUUUUUU [
bUUUUUUUUUUUUUUUU \
bUUUUUUUUUUUUUUUU ]
bXXXXXXXXXXXXXXXX ^
bXXXXXXXXXXXXXXXX _
bXXXXXXXXXXXXXXXX `
b0000000000000000 a
b0 b
0c
Ud
bXXXXXXXXXXXXXXXX e
bUUUUUUUUUUUUUUUU f
0g
0h
Ui
bXXXXXXXXXXXXXXXX j
bUUUUUUUUUUUUUUUU k
0l
0m
Un
bXXXXXXXXXXXXXXXX o
bUUUUUUUUUUUUUUUU p
0q
0r
Us
#10000000000
1!
1"
b0010000000000000 %
b0010000000000000 &
b1000111000111000 '
b0000000000000000 (
b0000000000000000 )
b0000000000000000 *
1+
b1 ,
b0010000000000000 -
b0010000000000000 .
b1000111000111000 /
b0000000000000000 0
b0000000000000000 1
b0000000000000000 2
13
14
15
b1110000000000000 8
b1110000000000000 9
b0000111000111000 :
b1110000000000000 ;
b1110000000000000 <
b0000111000111000 =
b0000000000000000 A
b1100000000000000 B
b1110111000111000 C
b0010000000000000 D
1E
b0010000000000000 F
b0010000000000000 G
b1000111000111000 H
b1110000000000000 I
b1110000000000000 J
b0000111000111000 K
b1110000000000000 M
b1110000000000000 N
b0000111000111000 O
b1110000000000000 P
b1110000000000000 Q
b0000111000111000 R
b0010000000000000 S
b0010000000000000 T
b1000111000111000 U
1V
1W
1X
b1110000000000000 [
b1110000000000000 \
b0000111000111000 ]
b0000000000000000 ^
b1100000000000000 _
b1110111000111000 `
b0010000000000000 a
0d
b0000000000000000 e
1g
1h
1i
b1100000000000000 j
1l
1m
1n
b1110111000111000 o
1q
1r
1s
#20000000000
0!
05
0V
0g
0l
0q
#30000000000
1!
0"
b10 ,
04
15
b0000000000000000 >
b0000000000000000 ?
b0000000000000000 @
1V
0X
b0000000000000000 f
1g
0h
b0000000000000000 k
1l
0m
b0000000000000000 p
1q
0r
#40000000000
0!
05
0V
0g
0l
0q
#50000000000
1!
b11 ,
15
b1 7
b0000000000000000 ;
b1100000000000000 <
b1110111000111000 =
b1100000000000000 ?
b1110111000111000 @
b1110000000000000 A
b1100000000000000 B
b0000000100011100 C
b0001001011100100 D
1V
b1 Y
b1 Z
b0000000000000000 [
b1100000000000000 \
b1110111000111000 ]
b1110000000000000 ^
b1100000000000000 _
b0000000100011100 `
b0001001011100100 a
b1 b
1d
b1110000000000000 e
1g
b1100000000000000 j
b1100000000000000 k
1l
b0000000100011100 o
b1110111000111000 p
1q
#60000000000
0!
05
0V
0g
0l
0q
#70000000000
1!
b100 ,
15
b10 7
b1110000000000000 ;
b0000000100011100 =
b1110000000000000 >
b0000000100011100 @
b1111000000000000 A
b1011100000000000 B
b1111011100100001 C
b0000100111111011 D
1V
b10 Y
b10 Z
b1110000000000000 [
b0000000100011100 ]
b1111000000000000 ^
b1011100000000000 _
b1111011100100001 `
b0000100111111011 a
b10 b
0d
b1111000000000000 e
b1110000000000000 f
1g
b1011100000000000 j
1l
b1111011100100001 o
b0000000100011100 p
1q
#80000000000
0!
05
0V
0g
0l
0q
#90000000000
1!
b101 ,
15
b11 7
b1111000000000000 ;
b1011100000000000 <
b1111011100100001 =
b1111000000000000 >
b1011100000000000 ?
b1111011100100001 @
b1110011100000000 A
b1011101000000000 B
b1111110000110010 C
b0000010100010001 D
1V
b11 Y
b11 Z
b1111000000000000 [
b1011100000000000 \
b1111011100100001 ]
b1110011100000000 ^
b1011101000000000 _
b1111110000110010 `
b0000010100010001 a
b11 b
1d
b1110011100000000 e
b1111000000000000 f
1g
b1011101000000000 j
b1011100000000000 k
1l
b1111110000110010 o
b1111011100100001 p
1q
#100000000000
0!
05
0V
0g
0l
0q
#110000000000
1!
b110 ,
15
b100 7
b1110011100000000 ;
b1011101000000000 <
b1111110000110010 =
b1110011100000000 >
b1011101000000000 ?
b1111110000110010 @
b1110001010100000 A
b1011101110010000 B
b1111111010111101 C
b0000001010001011 D
1V
b100 Y
b100 Z
b1110011100000000 [
b1011101000000000 \
b1111110000110010 ]
b1110001010100000 ^
b1011101110010000 _
b1111111010111101 `
b0000001010001011 a
b100 b
b1110001010100000 e
b1110011100000000 f
1g
b1011101110010000 j
b1011101000000000 k
1l
b1111111010111101 o
b1111110000110010 p
1q
#120000000000
0!
05
0V
0g
0l
0q
#130000000000
1!
b111 ,
15
b101 7
b1110001010100000 ;
b1011101110010000 <
b1111111010111101 =
b1110001010100000 >
b1011101110010000 ?
b1111111010111101 @
b1110000001111100 A
b1011110001111011 B
b0000000000000011 C
b0000000101000110 D
1V
b101 Y
b101 Z
b1110001010100000 [
b1011101110010000 \
b1111111010111101 ]
b1110000001111100 ^
b1011110001111011 _
b0000000000000011 `
b0000000101000110 a
b101 b
b1110000001111100 e
b1110001010100000 f
1g
b1011110001111011 j
b1011101110010000 k
1l
b0000000000000011 o
b1111111010111101 p
1q
#140000000000
0!
05
0V
0g
0l
0q
#150000000000
1!
b1000 ,
15
b110 7
b1110000001111100 ;
b1011110001111011 <
b0000000000000011 =
b1110000001111100 >
b1011110001111011 ?
b0000000000000011 @
b1110000110001011 A
b1011101111111100 B
b1111111101100000 C
b0000000010100011 D
1V
b110 Y
b110 Z
b1110000001111100 [
b1011110001111011 \
b0000000000000011 ]
b1110000110001011 ^
b1011101111111100 _
b1111111101100000 `
b0000000010100011 a
b110 b
0d
b1110000110001011 e
b1110000001111100 f
1g
b1011101111111100 j
b1011110001111011 k
1l
b1111111101100000 o
b0000000000000011 p
1q
#160000000000
0!
05
0V
0g
0l
0q
#170000000000
1!
b1001 ,
15
b111 7
b1110000110001011 ;
b1011101111111100 <
b1111111101100000 =
b1110000110001011 >
b1011101111111100 ?
b1111111101100000 @
b1110000100000010 A
b1011110000111001 B
b1111111110110001 C
b0000000001010001 D
1V
b111 Y
b111 Z
b1110000110001011 [
b1011101111111100 \
b1111111101100000 ]
b1110000100000010 ^
b1011110000111001 _
b1111111110110001 `
b0000000001010001 a
b111 b
1d
b1110000100000010 e
b1110000110001011 f
1g
b1011110000111001 j
b1011101111111100 k
1l
b1111111110110001 o
b1111111101100000 p
1q
#180000000000
0!
05
0V
0g
0l
0q
#190000000000
1!
b1010 ,
15
b1000 7
b1110000100000010 ;
b1011110000111001 <
b1111111110110001 =
b1110000100000010 >
b1011110000111001 ?
b1111111110110001 @
b1110000010111110 A
b1011110001011000 B
b1111111111011010 C
b0000000000101001 D
1V
b1000 Y
b1000 Z
b1110000100000010 [
b1011110000111001 \
b1111111110110001 ]
b1110000010111110 ^
b1011110001011000 _
b1111111111011010 `
b0000000000101001 a
b1000 b
b1110000010111110 e
b1110000100000010 f
1g
b1011110001011000 j
b1011110000111001 k
1l
b1111111111011010 o
b1111111110110001 p
1q
#200000000000
0!
05
0V
0g
0l
0q
#210000000000
1!
b1011 ,
15
b1001 7
b1110000010111110 ;
b1011110001011000 <
b1111111111011010 =
b1110000010111110 >
b1011110001011000 ?
b1111111111011010 @
b1110000010011100 A
b1011110001101000 B
b1111111111101110 C
b0000000000010100 D
1V
b1001 Y
b1001 Z
b1110000010111110 [
b1011110001011000 \
b1111111111011010 ]
b1110000010011100 ^
b1011110001101000 _
b1111111111101110 `
b0000000000010100 a
b1001 b
b1110000010011100 e
b1110000010111110 f
1g
b1011110001101000 j
b1011110001011000 k
1l
b1111111111101110 o
b1111111111011010 p
1q
#220000000000
0!
05
0V
0g
0l
0q
#230000000000
1!
b1100 ,
15
b1010 7
b1110000010011100 ;
b1011110001101000 <
b1111111111101110 =
b1110000010011100 >
b1011110001101000 ?
b1111111111101110 @
b1110000010001011 A
b1011110001110000 B
b1111111111111000 C
b0000000000001010 D
1V
b1010 Y
b1010 Z
b1110000010011100 [
b1011110001101000 \
b1111111111101110 ]
b1110000010001011 ^
b1011110001110000 _
b1111111111111000 `
b0000000000001010 a
b1010 b
b1110000010001011 e
b1110000010011100 f
1g
b1011110001110000 j
b1011110001101000 k
1l
b1111111111111000 o
b1111111111101110 p
1q
#240000000000
0!
05
0V
0g
0l
0q
#250000000000
1!
b1101 ,
15
b1011 7
b1110000010001011 ;
b1011110001110000 <
b1111111111111000 =
b1110000010001011 >
b1011110001110000 ?
b1111111111111000 @
b1110000010000010 A
b1011110001110100 B
b1111111111111101 C
b0000000000000101 D
1V
b1011 Y
b1011 Z
b1110000010001011 [
b1011110001110000 \
b1111111111111000 ]
b1110000010000010 ^
b1011110001110100 _
b1111111111111101 `
b0000000000000101 a
b1011 b
b1110000010000010 e
b1110000010001011 f
1g
b1011110001110100 j
b1011110001110000 k
1l
b1111111111111101 o
b1111111111111000 p
1q
#260000000000
0!
05
0V
0g
0l
0q
#270000000000
1!
b1110 ,
15
b1100 7
b1110000010000010 ;
b1011110001110100 <
b1111111111111101 =
b1110000010000010 >
b1011110001110100 ?
b1111111111111101 @
b1110000001111101 A
b1011110001110110 B
b0000000000000000 C
b0000000000000011 D
1V
b1100 Y
b1100 Z
b1110000010000010 [
b1011110001110100 \
b1111111111111101 ]
b1110000001111101 ^
b1011110001110110 _
b0000000000000000 `
b0000000000000011 a
b1100 b
b1110000001111101 e
b1110000010000010 f
1g
b1011110001110110 j
b1011110001110100 k
1l
b0000000000000000 o
b1111111111111101 p
1q
#280000000000
0!
05
0V
0g
0l
0q
#290000000000
1!
b1111 ,
15
b1101 7
b1110000001111101 ;
b1011110001110110 <
b0000000000000000 =
b1110000001111101 >
b1011110001110110 ?
b0000000000000000 @
b1110000010000000 A
b1011110001110101 B
b1111111111111111 C
b0000000000000001 D
1V
b1101 Y
b1101 Z
b1110000001111101 [
b1011110001110110 \
b0000000000000000 ]
b1110000010000000 ^
b1011110001110101 _
b1111111111111111 `
b0000000000000001 a
b1101 b
0d
b1110000010000000 e
b1110000001111101 f
1g
b1011110001110101 j
b1011110001110110 k
1l
b1111111111111111 o
b0000000000000000 p
1q
#300000000000
0!
05
0V
0g
0l
0q
#310000000000
1!
b10000 ,
15
b1110 7
b1110000010000000 ;
b1011110001110101 <
b1111111111111111 =
b1110000010000000 >
b1011110001110101 ?
b1111111111111111 @
b1110000001111110 A
b1011110001110110 B
b0000000000000000 C
1V
b1110 Y
b1110 Z
b1110000010000000 [
b1011110001110101 \
b1111111111111111 ]
b1110000001111110 ^
b1011110001110110 _
b0000000000000000 `
b1110 b
1d
b1110000001111110 e
b1110000010000000 f
1g
b1011110001110110 j
b1011110001110101 k
1l
b0000000000000000 o
b1111111111111111 p
1q
#320000000000
0!
05
0V
0g
0l
0q
#330000000000
1!
b1110110011100000 (
b1101011011111110 )
b1111111111111111 *
0+
b0 ,
b1110110011100000 0
b1101011011111110 1
b1111111111111111 2
03
15
b0 7
b1110000000000000 ;
b1110000000000000 <
b0000111000111000 =
b1110000001111110 >
b1011110001110110 ?
b0000000000000000 @
b0000000000000000 A
b1100000000000000 B
b0000111000111000 C
b0000000000000000 D
0E
1V
0W
b0 Y
b0 Z
b1110000000000000 [
b1110000000000000 \
b0000111000111000 ]
b0000000000000000 ^
b1100000000000000 _
b0000111000111000 `
b0000000000000000 a
b0 b
0d
b0000000000000000 e
b1110000001111110 f
1g
0i
b1100000000000000 j
b1011110001110110 k
1l
0n
b0000111000111000 o
b0000000000000000 p
1q
0s
#340000000000
0!
05
0V
0g
0l
0q
#350000000000
1!
1"
b0000000000000000 %
b1 ,
b0000000000000000 -
14
15
b0000000000000000 8
b0000000000000000 ;
b0010000000000000 A
b1110000000000000 B
b0000000000000000 F
b0000000000000000 I
b0000000000000000 M
b0000000000000000 P
b0000000000000000 S
1V
1X
b0000000000000000 [
b0010000000000000 ^
b1110000000000000 _
b0010000000000000 e
1g
1h
b1110000000000000 j
1l
1m
1q
1r
#360000000000
0!
05
0V
0g
0l
0q
#370000000000
1!
0"
b10 ,
04
15
b0000000000000000 >
b0000000000000000 ?
1V
0X
b0000000000000000 f
1g
0h
b0000000000000000 k
1l
0m
1q
0r
#380000000000
0!
05
0V
0g
0l
0q
#390000000000
1!
b0000000000000000 (
b0000000000000000 )
b0000000000000000 *
1+
b11 ,
b0000000000000000 0
b0000000000000000 1
b0000000000000000 2
13
15
b1110111000111000 C
b0010000000000000 D
1E
1V
1W
b1110111000111000 `
b0010000000000000 a
1g
1i
1l
1n
b1110111000111000 o
1q
1s
#400000000000
0!
05
0V
0g
0l
0q
#410000000000
1!
b100 ,
15
b1 7
b0010000000000000 ;
b1110111000111000 =
b0010000000000000 >
b1110000000000000 ?
b1110111000111000 @
b0001000000000000 A
b1101000000000000 B
b0000000100011100 C
b0001001011100100 D
1V
b1 Y
b1 Z
b0010000000000000 [
b1110111000111000 ]
b0001000000000000 ^
b1101000000000000 _
b0000000100011100 `
b0001001011100100 a
b1 b
1d
b0001000000000000 e
b0010000000000000 f
1g
b1101000000000000 j
b1110000000000000 k
1l
b0000000100011100 o
b1110111000111000 p
1q
#420000000000
0!
05
0V
0g
0l
0q
#430000000000
1!
b101 ,
15
b10 7
b0001000000000000 ;
b1101000000000000 <
b0000000100011100 =
b0001000000000000 >
b1101000000000000 ?
b0000000100011100 @
b0001110000000000 A
b1101010000000000 B
b1111011100100001 C
b0000100111111011 D
1V
b10 Y
b10 Z
b0001000000000000 [
b1101000000000000 \
b0000000100011100 ]
b0001110000000000 ^
b1101010000000000 _
b1111011100100001 `
b0000100111111011 a
b10 b
0d
b0001110000000000 e
b0001000000000000 f
1g
b1101010000000000 j
b1101000000000000 k
1l
b1111011100100001 o
b0000000100011100 p
1q
#440000000000
0!
05
0V
0g
0l
0q
#450000000000
1!
b110 ,
15
b11 7
b0001110000000000 ;
b1101010000000000 <
b1111011100100001 =
b0001110000000000 >
b1101010000000000 ?
b1111011100100001 @
b0001011010000000 A
b1101000010000000 B
b1111110000110010 C
b0000010100010001 D
1V
b11 Y
b11 Z
b0001110000000000 [
b1101010000000000 \
b1111011100100001 ]
b0001011010000000 ^
b1101000010000000 _
b1111110000110010 `
b0000010100010001 a
b11 b
1d
b0001011010000000 e
b0001110000000000 f
1g
b1101000010000000 j
b1101010000000000 k
1l
b1111110000110010 o
b1111011100100001 p
1q
#460000000000
0!
05
0V
0g
0l
0q
#470000000000
1!
b111 ,
15
b100 7
b0001011010000000 ;
b1101000010000000 <
b1111110000110010 =
b0001011010000000 >
b1101000010000000 ?
b1111110000110010 @
b0001001110001000 A
b1100111100011000 B
b1111111010111101 C
b0000001010001011 D
1V
b100 Y
b100 Z
b0001011010000000 [
b1101000010000000 \
b1111110000110010 ]
b0001001110001000 ^
b1100111100011000 _
b1111111010111101 `
b0000001010001011 a
b100 b
b0001001110001000 e
b0001011010000000 f
1g
b1100111100011000 j
b1101000010000000 k
1l
b1111111010111101 o
b1111110000110010 p
1q
#480000000000
0!
05
0V
0g
0l
0q
#490000000000
1!
b1000 ,
15
b101 7
b0001001110001000 ;
b1100111100011000 <
b1111111010111101 =
b0001001110001000 >
b1100111100011000 ?
b1111111010111101 @
b0001001000000000 A
b1100111001111100 B
b0000000000000011 C
b0000000101000110 D
1V
b101 Y
b101 Z
b0001001110001000 [
b1100111100011000 \
b1111111010111101 ]
b0001001000000000 ^
b1100111001111100 _
b0000000000000011 `
b0000000101000110 a
b101 b
b0001001000000000 e
b0001001110001000 f
1g
b1100111001111100 j
b1100111100011000 k
1l
b0000000000000011 o
b1111111010111101 p
1q
#500000000000
0!
05
0V
0g
0l
0q
#510000000000
1!
b1001 ,
15
b110 7
b0001001000000000 ;
b1100111001111100 <
b0000000000000011 =
b0001001000000000 >
b1100111001111100 ?
b0000000000000011 @
b0001001011000111 A
b1100111011000100 B
b1111111101100000 C
b0000000010100011 D
1V
b110 Y
b110 Z
b0001001000000000 [
b1100111001111100 \
b0000000000000011 ]
b0001001011000111 ^
b1100111011000100 _
b1111111101100000 `
b0000000010100011 a
b110 b
0d
b0001001011000111 e
b0001001000000000 f
1g
b1100111011000100 j
b1100111001111100 k
1l
b1111111101100000 o
b0000000000000011 p
1q
#520000000000
0!
05
0V
0g
0l
0q
#530000000000
1!
b1010 ,
15
b111 7
b0001001011000111 ;
b1100111011000100 <
b1111111101100000 =
b0001001011000111 >
b1100111011000100 ?
b1111111101100000 @
b0001001001100100 A
b1100111010011111 B
b1111111110110001 C
b0000000001010001 D
1V
b111 Y
b111 Z
b0001001011000111 [
b1100111011000100 \
b1111111101100000 ]
b0001001001100100 ^
b1100111010011111 _
b1111111110110001 `
b0000000001010001 a
b111 b
1d
b0001001001100100 e
b0001001011000111 f
1g
b1100111010011111 j
b1100111011000100 k
1l
b1111111110110001 o
b1111111101100000 p
1q
#540000000000
0!
05
0V
0g
0l
0q
#550000000000
1!
b1011 ,
15
b1000 7
b0001001001100100 ;
b1100111010011111 <
b1111111110110001 =
b0001001001100100 >
b1100111010011111 ?
b1111111110110001 @
b0001001000110010 A
b1100111010001101 B
b1111111111011010 C
b0000000000101001 D
1V
b1000 Y
b1000 Z
b0001001001100100 [
b1100111010011111 \
b1111111110110001 ]
b0001001000110010 ^
b1100111010001101 _
b1111111111011010 `
b0000000000101001 a
b1000 b
b0001001000110010 e
b0001001001100100 f
1g
b1100111010001101 j
b1100111010011111 k
1l
b1111111111011010 o
b1111111110110001 p
1q
#560000000000
0!
05
0V
0g
0l
0q
#570000000000
1!
b1100 ,
15
b1001 7
b0001001000110010 ;
b1100111010001101 <
b1111111111011010 =
b0001001000110010 >
b1100111010001101 ?
b1111111111011010 @
b0001001000011001 A
b1100111010000100 B
b1111111111101110 C
b0000000000010100 D
1V
b1001 Y
b1001 Z
b0001001000110010 [
b1100111010001101 \
b1111111111011010 ]
b0001001000011001 ^
b1100111010000100 _
b1111111111101110 `
b0000000000010100 a
b1001 b
b0001001000011001 e
b0001001000110010 f
1g
b1100111010000100 j
b1100111010001101 k
1l
b1111111111101110 o
b1111111111011010 p
1q
#580000000000
0!
05
0V
0g
0l
0q
#590000000000
1!
b1101 ,
15
b1010 7
b0001001000011001 ;
b1100111010000100 <
b1111111111101110 =
b0001001000011001 >
b1100111010000100 ?
b1111111111101110 @
b0001001000001100 A
b1100111010000000 B
b1111111111111000 C
b0000000000001010 D
1V
b1010 Y
b1010 Z
b0001001000011001 [
b1100111010000100 \
b1111111111101110 ]
b0001001000001100 ^
b1100111010000000 _
b1111111111111000 `
b0000000000001010 a
b1010 b
b0001001000001100 e
b0001001000011001 f
1g
b1100111010000000 j
b1100111010000100 k
1l
b1111111111111000 o
b1111111111101110 p
1q
#600000000000
0!
05
0V
0g
0l
0q
#610000000000
1!
b1110 ,
15
b1011 7
b0001001000001100 ;
b1100111010000000 <
b1111111111111000 =
b0001001000001100 >
b1100111010000000 ?
b1111111111111000 @
b0001001000000101 A
b1100111001111110 B
b1111111111111101 C
b0000000000000101 D
1V
b1011 Y
b1011 Z
b0001001000001100 [
b1100111010000000 \
b1111111111111000 ]
b0001001000000101 ^
b1100111001111110 _
b1111111111111101 `
b0000000000000101 a
b1011 b
b0001001000000101 e
b0001001000001100 f
1g
b1100111001111110 j
b1100111010000000 k
1l
b1111111111111101 o
b1111111111111000 p
1q
#620000000000
0!
05
0V
0g
0l
0q
#630000000000
1!
b1111 ,
15
b1100 7
b0001001000000101 ;
b1100111001111110 <
b1111111111111101 =
b0001001000000101 >
b1100111001111110 ?
b1111111111111101 @
b0001001000000001 A
b1100111001111101 B
b0000000000000000 C
b0000000000000011 D
1V
b1100 Y
b1100 Z
b0001001000000101 [
b1100111001111110 \
b1111111111111101 ]
b0001001000000001 ^
b1100111001111101 _
b0000000000000000 `
b0000000000000011 a
b1100 b
b0001001000000001 e
b0001001000000101 f
1g
b1100111001111101 j
b1100111001111110 k
1l
b0000000000000000 o
b1111111111111101 p
1q
#640000000000
0!
05
0V
0g
0l
0q
#650000000000
1!
b10000 ,
15
b1101 7
b0001001000000001 ;
b1100111001111101 <
b0000000000000000 =
b0001001000000001 >
b1100111001111101 ?
b0000000000000000 @
b0001001000000011 A
b1111111111111111 C
b0000000000000001 D
1V
b1101 Y
b1101 Z
b0001001000000001 [
b1100111001111101 \
b0000000000000000 ]
b0001001000000011 ^
b1111111111111111 `
b0000000000000001 a
b1101 b
0d
b0001001000000011 e
b0001001000000001 f
1g
b1100111001111101 k
1l
b1111111111111111 o
b0000000000000000 p
1q
#660000000000
0!
05
0V
0g
0l
0q
#670000000000
1!
b0 ,
15
b1110 7
b0001001000000011 ;
b1111111111111111 =
b0001001000000011 >
b1111111111111111 @
b0001001000000010 A
b0000000000000000 C
1V
b1110 Y
b1110 Z
b0001001000000011 [
b1111111111111111 ]
b0001001000000010 ^
b0000000000000000 `
b1110 b
1d
b0001001000000010 e
b0001001000000011 f
1g
1l
b0000000000000000 o
b1111111111111111 p
1q
#680000000000
0!
05
0V
0g
0l
0q
#690000000000
1!
b0000101011101111 (
b1110000111110001 )
b1111111111111111 *
0+
b1 ,
b0000101011101111 0
b1110000111110001 1
b1111111111111111 2
03
15
b0 7
b0000000000000000 ;
b1110000000000000 <
b0000111000111000 =
b0001001000000010 >
b0000000000000000 @
b0010000000000000 A
b1110000000000000 B
b0000111000111000 C
b0000000000000000 D
0E
1V
0W
b0 Y
b0 Z
b0000000000000000 [
b1110000000000000 \
b0000111000111000 ]
b0010000000000000 ^
b1110000000000000 _
b0000111000111000 `
b0000000000000000 a
b0 b
0d
b0010000000000000 e
b0001001000000010 f
1g
0i
b1110000000000000 j
1l
0n
b0000111000111000 o
b0000000000000000 p
1q
0s
#700000000000
0!
05
0V
0g
0l
0q
#710000000000
1!
1"
b0010000000000000 %
b10 ,
b0010000000000000 -
14
15
b1110000000000000 8
b1110000000000000 ;
b0000000000000000 A
b1100000000000000 B
b0010000000000000 F
b1110000000000000 I
b1110000000000000 M
b1110000000000000 P
b0010000000000000 S
1V
1X
b1110000000000000 [
b0000000000000000 ^
b1100000000000000 _
b0000000000000000 e
1g
1h
b1100000000000000 j
1l
1m
1q
1r
#720000000000
0!
05
0V
0g
0l
0q
#730000000000
1!
0"
b11 ,
04
15
b0000000000000000 >
b0000000000000000 ?
1V
0X
b0000000000000000 f
1g
0h
b0000000000000000 k
1l
0m
1q
0r
#740000000000
0!
05
0V
0g
0l
0q
#750000000000
1!
b0000000000000000 (
b0000000000000000 )
b0000000000000000 *
1+
b100 ,
b0000000000000000 0
b0000000000000000 1
b0000000000000000 2
13
15
b1110111000111000 C
b0010000000000000 D
1E
1V
1W
b1110111000111000 `
b0010000000000000 a
1g
1i
1l
1n
b1110111000111000 o
1q
1s
#760000000000
0!
05
0V
0g
0l
0q
#770000000000
1!
b101 ,
15
b1 7
b0000000000000000 ;
b1100000000000000 <
b1110111000111000 =
b1100000000000000 ?
b1110111000111000 @
b1110000000000000 A
b1100000000000000 B
b0000000100011100 C
b0001001011100100 D
1V
b1 Y
b1 Z
b0000000000000000 [
b1100000000000000 \
b1110111000111000 ]
b1110000000000000 ^
b1100000000000000 _
b0000000100011100 `
b0001001011100100 a
b1 b
1d
b1110000000000000 e
1g
b1100000000000000 j
b1100000000000000 k
1l
b0000000100011100 o
b1110111000111000 p
1q
#780000000000
0!
05
0V
0g
0l
0q
#790000000000
1!
b110 ,
15
b10 7
b1110000000000000 ;
b0000000100011100 =
b1110000000000000 >
b0000000100011100 @
b1111000000000000 A
b1011100000000000 B
b1111011100100001 C
b0000100111111011 D
1V
b10 Y
b10 Z
b1110000000000000 [
b0000000100011100 ]
b1111000000000000 ^
b1011100000000000 _
b1111011100100001 `
b0000100111111011 a
b10 b
0d
b1111000000000000 e
b1110000000000000 f
1g
b1011100000000000 j
1l
b1111011100100001 o
b0000000100011100 p
1q
#800000000000
0!
05
0V
0g
0l
0q
#810000000000
1!
b111 ,
15
b11 7
b1111000000000000 ;
b1011100000000000 <
b1111011100100001 =
b1111000000000000 >
b1011100000000000 ?
b1111011100100001 @
b1110011100000000 A
b1011101000000000 B
b1111110000110010 C
b0000010100010001 D
1V
b11 Y
b11 Z
b1111000000000000 [
b1011100000000000 \
b1111011100100001 ]
b1110011100000000 ^
b1011101000000000 _
b1111110000110010 `
b0000010100010001 a
b11 b
1d
b1110011100000000 e
b1111000000000000 f
1g
b1011101000000000 j
b1011100000000000 k
1l
b1111110000110010 o
b1111011100100001 p
1q
#820000000000
0!
05
0V
0g
0l
0q
