cordic_tb.vcd
$date
  Sat Dec 23 11:59:49 2023
$end
$version
  GHDL v0
$end
$timescale
  1 fs
$end
$scope module standard $end
$upscope $end
$scope module std_logic_1164 $end
$upscope $end
$scope module numeric_std $end
$upscope $end
$scope module math_real $end
$upscope $end
$scope module textio $end
$upscope $end
$scope module utils $end
$upscope $end
$scope module cordic_tb $end
$var reg 1 ! clk $end
$var reg 1 " rst $end
$var reg 1 # req $end
$var reg 1 $ rot0_vec1 $end
$var reg 18 % x_in[17:0] $end
$var reg 18 & y_in[17:0] $end
$var reg 18 ' z_in[17:0] $end
$var reg 18 ( x_out[17:0] $end
$var reg 18 ) y_out[17:0] $end
$var reg 18 * z_out[17:0] $end
$var integer 32 + count $end
$scope module dut $end
$var reg 18 , x0[17:0] $end
$var reg 18 - y0[17:0] $end
$var reg 18 . z0[17:0] $end
$var reg 18 / xr[17:0] $end
$var reg 18 0 yr[17:0] $end
$var reg 18 1 zr[17:0] $end
$var reg 1 2 start $end
$var reg 1 3 clk $end
$var reg 1 4 mode $end
$var integer 32 5 i $end
$var reg 18 6 x_in[17:0] $end
$var reg 18 7 y_in[17:0] $end
$var reg 18 8 z_in[17:0] $end
$var reg 18 9 x_act[17:0] $end
$var reg 18 : y_act[17:0] $end
$var reg 18 ; z_act[17:0] $end
$var reg 18 < x_next[17:0] $end
$var reg 18 = y_next[17:0] $end
$var reg 18 > z_next[17:0] $end
$var reg 18 ? beta[17:0] $end
$var reg 1 @ count_en $end
$scope module counter $end
$var reg 1 A clk $end
$var reg 1 B ena $end
$var reg 1 C rst $end
$var integer 32 D count $end
$var integer 32 E aux $end
$upscope $end
$scope module cordic_stage $end
$var reg 18 F x_in[17:0] $end
$var reg 18 G y_in[17:0] $end
$var reg 18 H z_in[17:0] $end
$var reg 18 I x_out[17:0] $end
$var reg 18 J y_out[17:0] $end
$var reg 18 K z_out[17:0] $end
$var reg 18 L beta[17:0] $end
$var integer 32 M shift $end
$var reg 1 N mode $end
$var reg 1 O di $end
$upscope $end
$scope module reg_x $end
$var reg 18 P di[17:0] $end
$var reg 18 Q qo[17:0] $end
$var reg 1 R clk $end
$var reg 1 S rst $end
$upscope $end
$scope module reg_y $end
$var reg 18 T di[17:0] $end
$var reg 18 U qo[17:0] $end
$var reg 1 V clk $end
$var reg 1 W rst $end
$upscope $end
$scope module reg_z $end
$var reg 18 X di[17:0] $end
$var reg 18 Y qo[17:0] $end
$var reg 1 Z clk $end
$var reg 1 [ rst $end
$upscope $end
$upscope $end
$upscope $end
$enddefinitions $end
#0
0!
0"
0#
0$
bUUUUUUUUUUUUUUUUUU %
bUUUUUUUUUUUUUUUUUU &
bUUUUUUUUUUUUUUUUUU '
bUUUUUUUUUUUUUUUUUU (
bUUUUUUUUUUUUUUUUUU )
bUUUUUUUUUUUUUUUUUU *
b0 +
bUUUUUUUUUUUUUUUUUU ,
bUUUUUUUUUUUUUUUUUU -
bUUUUUUUUUUUUUUUUUU .
bUUUUUUUUUUUUUUUUUU /
bUUUUUUUUUUUUUUUUUU 0
bUUUUUUUUUUUUUUUUUU 1
02
03
04
b0 5
bUUUUUUUUUUUUUUUUUU 6
bUUUUUUUUUUUUUUUUUU 7
bUUUUUUUUUUUUUUUUUU 8
bUUUUUUUUUUUUUUUUUU 9
bUUUUUUUUUUUUUUUUUU :
bUUUUUUUUUUUUUUUUUU ;
bXXXXXXXXXXXXXXXXXX <
bXXXXXXXXXXXXXXXXXX =
bXXXXXXXXXXXXXXXXXX >
b000000000000000000 ?
U@
0A
UB
0C
b0 D
b0 E
bUUUUUUUUUUUUUUUUUU F
bUUUUUUUUUUUUUUUUUU G
bUUUUUUUUUUUUUUUUUU H
bXXXXXXXXXXXXXXXXXX I
bXXXXXXXXXXXXXXXXXX J
bXXXXXXXXXXXXXXXXXX K
b000000000000000000 L
b0 M
0N
UO
bXXXXXXXXXXXXXXXXXX P
bUUUUUUUUUUUUUUUUUU Q
0R
0S
bXXXXXXXXXXXXXXXXXX T
bUUUUUUUUUUUUUUUUUU U
0V
0W
bXXXXXXXXXXXXXXXXXX X
bUUUUUUUUUUUUUUUUUU Y
0Z
0[
#10000000000
1!
1"
b000001000000000000 %
b000000000000000000 &
b000010000000000000 '
b000000000000000000 (
b000000000000000000 )
b000000000000000000 *
b1 +
b000001000000000000 ,
b000000000000000000 -
b000010000000000000 .
b000000000000000000 /
b000000000000000000 0
b000000000000000000 1
12
13
b000001000000000000 6
b000000000000000000 7
b000010000000000000 8
b000000000000000000 9
b000000000000000000 :
b000000000000000000 ;
b000001000000000000 <
b000001000000000000 =
b000010000000000000 >
1A
1C
b000001000000000000 F
b000000000000000000 G
b000010000000000000 H
b000001000000000000 I
b000001000000000000 J
b000010000000000000 K
0O
b000001000000000000 P
b000000000000000000 Q
1R
1S
b000001000000000000 T
b000000000000000000 U
1V
1W
b000010000000000000 X
b000000000000000000 Y
1Z
1[
#20000000000
0!
03
0A
0R
0V
0Z
#30000000000
1!
0"
b000001000000000000 (
b000001000000000000 )
b000010000000000000 *
b10 +
b000001000000000000 /
b000001000000000000 0
b000010000000000000 1
02
13
b000001000000000000 9
b000001000000000000 :
b000010000000000000 ;
b000000000000000000 >
b000010000000000000 ?
1@
1A
1B
0C
b000000000000000000 K
b000010000000000000 L
b000001000000000000 Q
1R
0S
b000001000000000000 U
1V
0W
b000000000000000000 X
b000010000000000000 Y
1Z
0[
#40000000000
0!
03
0A
0R
0V
0Z
#50000000000
1!
b000000000000000000 *
b11 +
b000000000000000000 1
13
b1 5
b000001000000000000 7
b000000000000000000 8
b000000000000000000 ;
b000000100000000000 <
b000001100000000000 =
b111110110100011100 >
b000001001011100100 ?
1A
b1 D
b1 E
b000001000000000000 G
b000000000000000000 H
b000000100000000000 I
b000001100000000000 J
b111110110100011100 K
b000001001011100100 L
b1 M
b000000100000000000 P
1R
b000001100000000000 T
1V
b111110110100011100 X
b000000000000000000 Y
1Z
#60000000000
0!
03
0A
0R
0V
0Z
#70000000000
1!
b000000100000000000 (
b000001100000000000 )
b111110110100011100 *
b100 +
b000000100000000000 /
b000001100000000000 0
b111110110100011100 1
13
b10 5
b000000100000000000 6
b000001100000000000 7
b111110110100011100 8
b000000100000000000 9
b000001100000000000 :
b111110110100011100 ;
b000000111000000000 <
b000001011000000000 =
b111111011100010111 >
b000000100111111011 ?
1A
b10 D
b10 E
b000000100000000000 F
b000001100000000000 G
b111110110100011100 H
b000000111000000000 I
b000001011000000000 J
b111111011100010111 K
b000000100111111011 L
b10 M
1O
b000000111000000000 P
b000000100000000000 Q
1R
b000001011000000000 T
b000001100000000000 U
1V
b111111011100010111 X
b111110110100011100 Y
1Z
#80000000000
0!
03
0A
0R
0V
0Z
#90000000000
1!
b000000111000000000 (
b000001011000000000 )
b111111011100010111 *
b101 +
b000000111000000000 /
b000001011000000000 0
b111111011100010111 1
13
b11 5
b000000111000000000 6
b000001011000000000 7
b111111011100010111 8
b000000111000000000 9
b000001011000000000 :
b111111011100010111 ;
b000001000011000000 <
b000001010001000000 =
b111111110000101000 >
b000000010100010001 ?
1A
b11 D
b11 E
b000000111000000000 F
b000001011000000000 G
b111111011100010111 H
b000001000011000000 I
b000001010001000000 J
b111111110000101000 K
b000000010100010001 L
b11 M
b000001000011000000 P
b000000111000000000 Q
1R
b000001010001000000 T
b000001011000000000 U
1V
b111111110000101000 X
b111111011100010111 Y
1Z
#100000000000
0!
03
0A
0R
0V
0Z
#110000000000
1!
b000001000011000000 (
b000001010001000000 )
b111111110000101000 *
b110 +
b000001000011000000 /
b000001010001000000 0
b111111110000101000 1
13
b100 5
b000001000011000000 6
b000001010001000000 7
b111111110000101000 8
b000001000011000000 9
b000001010001000000 :
b111111110000101000 ;
b000001001000000100 <
b000001001100110100 =
b111111111010110011 >
b000000001010001011 ?
1A
b100 D
b100 E
b000001000011000000 F
b000001010001000000 G
b111111110000101000 H
b000001001000000100 I
b000001001100110100 J
b111111111010110011 K
b000000001010001011 L
b100 M
b000001001000000100 P
b000001000011000000 Q
1R
b000001001100110100 T
b000001010001000000 U
1V
b111111111010110011 X
b111111110000101000 Y
1Z
#120000000000
0!
03
0A
0R
0V
0Z
#130000000000
1!
b000001001000000100 (
b000001001100110100 )
b111111111010110011 *
b111 +
b000001001000000100 /
b000001001100110100 0
b111111111010110011 1
13
b101 5
b000001001000000100 6
b000001001100110100 7
b111111111010110011 8
b000001001000000100 9
b000001001100110100 :
b111111111010110011 ;
b000001001010011101 <
b000001001010100100 =
b111111111111111001 >
b000000000101000110 ?
1A
b101 D
b101 E
b000001001000000100 F
b000001001100110100 G
b111111111010110011 H
b000001001010011101 I
b000001001010100100 J
b111111111111111001 K
b000000000101000110 L
b101 M
b000001001010011101 P
b000001001000000100 Q
1R
b000001001010100100 T
b000001001100110100 U
1V
b111111111111111001 X
b111111111010110011 Y
1Z
#140000000000
0!
03
0A
0R
0V
0Z
#150000000000
1!
b000001001010011101 (
b000001001010100100 )
b111111111111111001 *
b1000 +
b000001001010011101 /
b000001001010100100 0
b111111111111111001 1
13
b110 5
b000001001010011101 6
b000001001010100100 7
b111111111111111001 8
b000001001010011101 9
b000001001010100100 :
b111111111111111001 ;
b000001001011100111 <
b000001001001011010 =
b000000000010011100 >
b000000000010100011 ?
1A
b110 D
b110 E
b000001001010011101 F
b000001001010100100 G
b111111111111111001 H
b000001001011100111 I
b000001001001011010 J
b000000000010011100 K
b000000000010100011 L
b110 M
b000001001011100111 P
b000001001010011101 Q
1R
b000001001001011010 T
b000001001010100100 U
1V
b000000000010011100 X
b111111111111111001 Y
1Z
#160000000000
0!
03
0A
0R
0V
0Z
#170000000000
1!
b000001001011100111 (
b000001001001011010 )
b000000000010011100 *
b1001 +
b000001001011100111 /
b000001001001011010 0
b000000000010011100 1
13
b111 5
b000001001011100111 6
b000001001001011010 7
b000000000010011100 8
b000001001011100111 9
b000001001001011010 :
b000000000010011100 ;
b000001001011000011 <
b000001001001111111 =
b000000000001001011 >
b000000000001010001 ?
1A
b111 D
b111 E
b000001001011100111 F
b000001001001011010 G
b000000000010011100 H
b000001001011000011 I
b000001001001111111 J
b000000000001001011 K
b000000000001010001 L
b111 M
0O
b000001001011000011 P
b000001001011100111 Q
1R
b000001001001111111 T
b000001001001011010 U
1V
b000000000001001011 X
b000000000010011100 Y
1Z
#180000000000
0!
03
0A
0R
0V
0Z
#190000000000
1!
b000001001011000011 (
b000001001001111111 )
b000000000001001011 *
b1010 +
b000001001011000011 /
b000001001001111111 0
b000000000001001011 1
13
b1000 5
b000001001011000011 6
b000001001001111111 7
b000000000001001011 8
b000001001011000011 9
b000001001001111111 :
b000000000001001011 ;
b000001001010110001 <
b000001001010010001 =
b000000000000100010 >
b000000000000101001 ?
1A
b1000 D
b1000 E
b000001001011000011 F
b000001001001111111 G
b000000000001001011 H
b000001001010110001 I
b000001001010010001 J
b000000000000100010 K
b000000000000101001 L
b1000 M
b000001001010110001 P
b000001001011000011 Q
1R
b000001001010010001 T
b000001001001111111 U
1V
b000000000000100010 X
b000000000001001011 Y
1Z
#200000000000
0!
03
0A
0R
0V
0Z
#210000000000
1!
b000001001010110001 (
b000001001010010001 )
b000000000000100010 *
b1011 +
b000001001010110001 /
b000001001010010001 0
b000000000000100010 1
13
b1001 5
b000001001010110001 6
b000001001010010001 7
b000000000000100010 8
b000001001010110001 9
b000001001010010001 :
b000000000000100010 ;
b000001001010101000 <
b000001001010011010 =
b000000000000001110 >
b000000000000010100 ?
1A
b1001 D
b1001 E
b000001001010110001 F
b000001001010010001 G
b000000000000100010 H
b000001001010101000 I
b000001001010011010 J
b000000000000001110 K
b000000000000010100 L
b1001 M
b000001001010101000 P
b000001001010110001 Q
1R
b000001001010011010 T
b000001001010010001 U
1V
b000000000000001110 X
b000000000000100010 Y
1Z
#220000000000
0!
03
0A
0R
0V
0Z
#230000000000
1!
b000001001010101000 (
b000001001010011010 )
b000000000000001110 *
b1100 +
b000001001010101000 /
b000001001010011010 0
b000000000000001110 1
13
b1010 5
b000001001010101000 6
b000001001010011010 7
b000000000000001110 8
b000001001010101000 9
b000001001010011010 :
b000000000000001110 ;
b000001001010100100 <
b000001001010011110 =
b000000000000000100 >
b000000000000001010 ?
1A
b1010 D
b1010 E
b000001001010101000 F
b000001001010011010 G
b000000000000001110 H
b000001001010100100 I
b000001001010011110 J
b000000000000000100 K
b000000000000001010 L
b1010 M
b000001001010100100 P
b000001001010101000 Q
1R
b000001001010011110 T
b000001001010011010 U
1V
b000000000000000100 X
b000000000000001110 Y
1Z
#240000000000
0!
03
0A
0R
0V
0Z
#250000000000
1!
b000001001010100100 (
b000001001010011110 )
b000000000000000100 *
b1101 +
b000001001010100100 /
b000001001010011110 0
b000000000000000100 1
13
b1011 5
b000001001010100100 6
b000001001010011110 7
b000000000000000100 8
b000001001010100100 9
b000001001010011110 :
b000000000000000100 ;
b000001001010100010 <
b000001001010100000 =
b111111111111111111 >
b000000000000000101 ?
1A
b1011 D
b1011 E
b000001001010100100 F
b000001001010011110 G
b000000000000000100 H
b000001001010100010 I
b000001001010100000 J
b111111111111111111 K
b000000000000000101 L
b1011 M
b000001001010100010 P
b000001001010100100 Q
1R
b000001001010100000 T
b000001001010011110 U
1V
b111111111111111111 X
b000000000000000100 Y
1Z
#260000000000
0!
03
0A
0R
0V
0Z
#270000000000
1!
b000001001010100010 (
b000001001010100000 )
b111111111111111111 *
b1110 +
b000001001010100010 /
b000001001010100000 0
b111111111111111111 1
13
b1100 5
b000001001010100010 6
b000001001010100000 7
b111111111111111111 8
b000001001010100010 9
b000001001010100000 :
b111111111111111111 ;
b000001001010100011 <
b000001001010011111 =
b000000000000000010 >
b000000000000000011 ?
1A
b1100 D
b1100 E
b000001001010100010 F
b000001001010100000 G
b111111111111111111 H
b000001001010100011 I
b000001001010011111 J
b000000000000000010 K
b000000000000000011 L
b1100 M
1O
b000001001010100011 P
b000001001010100010 Q
1R
b000001001010011111 T
b000001001010100000 U
1V
b000000000000000010 X
b111111111111111111 Y
1Z
#280000000000
0!
03
0A
0R
0V
0Z
#290000000000
1!
b000001001010100011 (
b000001001010011111 )
b000000000000000010 *
b1111 +
b000001001010100011 /
b000001001010011111 0
b000000000000000010 1
13
b1101 5
b000001001010100011 6
b000001001010011111 7
b000000000000000010 8
b000001001010100011 9
b000001001010011111 :
b000000000000000010 ;
b000001001010100011 <
b000001001010011111 =
b000000000000000001 >
b000000000000000001 ?
1A
b1101 D
b1101 E
b000001001010100011 F
b000001001010011111 G
b000000000000000010 H
b000001001010100011 I
b000001001010011111 J
b000000000000000001 K
b000000000000000001 L
b1101 M
0O
b000001001010100011 P
b000001001010100011 Q
1R
b000001001010011111 T
b000001001010011111 U
1V
b000000000000000001 X
b000000000000000010 Y
1Z
#300000000000
0!
03
0A
0R
0V
0Z
#310000000000
1!
b000000000000000001 *
b10000 +
b000000000000000001 1
13
b1110 5
b000000000000000001 8
b000000000000000001 ;
b000000000000000001 >
b000000000000000000 ?
0@
1A
0B
b1110 D
b1110 E
b000000000000000001 H
b000000000000000001 K
b000000000000000000 L
b1110 M
1R
1V
b000000000000000001 X
b000000000000000001 Y
1Z
#320000000000
0!
03
0A
0R
0V
0Z
#330000000000
1!
b10001 +
13
1A
1R
1V
1Z
#340000000000
0!
03
0A
0R
0V
0Z
#350000000000
1!
b10010 +
13
1A
1R
1V
1Z
