cordic_tb.vcd
$date
  Thu Feb 20 18:42:18 2025
$end
$version
  GHDL v0
$end
$timescale
  1 fs
$end
$scope module standard $end
$upscope $end
$scope module std_logic_1164 $end
$upscope $end
$scope module numeric_std $end
$upscope $end
$scope module math_real $end
$upscope $end
$scope module textio $end
$upscope $end
$scope module utils $end
$upscope $end
$scope module cordic_tb $end
$var reg 1 ! clk $end
$var reg 1 " rst $end
$var reg 1 # req $end
$var reg 1 $ rot0_vec1 $end
$var reg 16 % x_in[15:0] $end
$var reg 16 & y_in[15:0] $end
$var reg 16 ' z_in[15:0] $end
$var reg 16 ( x_out[15:0] $end
$var reg 16 ) y_out[15:0] $end
$var reg 16 * z_out[15:0] $end
$var integer 32 + count $end
$scope module dut_cordic $end
$var reg 16 , x0[15:0] $end
$var reg 16 - y0[15:0] $end
$var reg 16 . z0[15:0] $end
$var reg 16 / xr[15:0] $end
$var reg 16 0 yr[15:0] $end
$var reg 16 1 zr[15:0] $end
$var reg 1 2 start $end
$var reg 1 3 clk $end
$var reg 1 4 mode $end
$var integer 32 5 i $end
$var reg 16 6 x_pre[15:0] $end
$var reg 16 7 y_pre[15:0] $end
$var reg 16 8 z_pre[15:0] $end
$var reg 16 9 x_in[15:0] $end
$var reg 16 : y_in[15:0] $end
$var reg 16 ; z_in[15:0] $end
$var reg 16 < x_act[15:0] $end
$var reg 16 = y_act[15:0] $end
$var reg 16 > z_act[15:0] $end
$var reg 16 ? x_next[15:0] $end
$var reg 16 @ y_next[15:0] $end
$var reg 16 A z_next[15:0] $end
$var reg 16 B beta[15:0] $end
$var reg 1 C count_en $end
$scope module precordic $end
$var reg 16 D x_in[15:0] $end
$var reg 16 E y_in[15:0] $end
$var reg 16 F z_in[15:0] $end
$var reg 16 G x_out[15:0] $end
$var reg 16 H y_out[15:0] $end
$var reg 16 I z_out[15:0] $end
$var reg 1 J mode $end
$var reg 16 K x_in_2c[15:0] $end
$var reg 16 L y_in_2c[15:0] $end
$var reg 16 M z_in_inv[15:0] $end
$var reg 16 N x_rot[15:0] $end
$var reg 16 O y_rot[15:0] $end
$var reg 16 P z_rot[15:0] $end
$var reg 16 Q x_vec[15:0] $end
$var reg 16 R y_vec[15:0] $end
$var reg 16 S z_vec[15:0] $end
$upscope $end
$scope module counter $end
$var reg 1 T clk $end
$var reg 1 U ena $end
$var reg 1 V rst $end
$var integer 32 W count $end
$var integer 32 X aux $end
$upscope $end
$scope module cordic_stage $end
$var reg 16 Y x_in[15:0] $end
$var reg 16 Z y_in[15:0] $end
$var reg 16 [ z_in[15:0] $end
$var reg 16 \ x_out[15:0] $end
$var reg 16 ] y_out[15:0] $end
$var reg 16 ^ z_out[15:0] $end
$var reg 16 _ beta[15:0] $end
$var integer 32 ` shift $end
$var reg 1 a mode $end
$var reg 1 b di $end
$upscope $end
$scope module reg_x $end
$var reg 16 c di[15:0] $end
$var reg 16 d qo[15:0] $end
$var reg 1 e clk $end
$var reg 1 f rst $end
$var reg 1 g ena $end
$upscope $end
$scope module reg_y $end
$var reg 16 h di[15:0] $end
$var reg 16 i qo[15:0] $end
$var reg 1 j clk $end
$var reg 1 k rst $end
$var reg 1 l ena $end
$upscope $end
$scope module reg_z $end
$var reg 16 m di[15:0] $end
$var reg 16 n qo[15:0] $end
$var reg 1 o clk $end
$var reg 1 p rst $end
$var reg 1 q ena $end
$upscope $end
$upscope $end
$upscope $end
$enddefinitions $end
#0
0!
0"
0#
0$
bUUUUUUUUUUUUUUUU %
bUUUUUUUUUUUUUUUU &
bUUUUUUUUUUUUUUUU '
b0000000000000000 (
b0000000000000000 )
bUUUUUUUUUUUUUUUU *
b0 +
bUUUUUUUUUUUUUUUU ,
bUUUUUUUUUUUUUUUU -
bUUUUUUUUUUUUUUUU .
b0000000000000000 /
b0000000000000000 0
bUUUUUUUUUUUUUUUU 1
02
03
04
b0 5
bUUUUUUUUUUUUUUUU 6
bUUUUUUUUUUUUUUUU 7
bUUUUUUUUUUUUUUUU 8
bUUUUUUUUUUUUUUUU 9
bUUUUUUUUUUUUUUUU :
bUUUUUUUUUUUUUUUU ;
bUUUUUUUUUUUUUUUU <
bUUUUUUUUUUUUUUUU =
bUUUUUUUUUUUUUUUU >
bXXXXXXXXXXXXXXXX ?
bXXXXXXXXXXXXXXXX @
bXXXXXXXXXXXXXXXX A
b0000000000000000 B
UC
bUUUUUUUUUUUUUUUU D
bUUUUUUUUUUUUUUUU E
bUUUUUUUUUUUUUUUU F
bUUUUUUUUUUUUUUUU G
bUUUUUUUUUUUUUUUU H
bUUUUUUUUUUUUUUUU I
0J
bXXXXXXXXXXXXXXXX K
bXXXXXXXXXXXXXXXX L
bUUUUUUUUUUUUUUUU M
bUUUUUUUUUUUUUUUU N
bUUUUUUUUUUUUUUUU O
bUUUUUUUUUUUUUUUU P
bUUUUUUUUUUUUUUUU Q
bUUUUUUUUUUUUUUUU R
bUUUUUUUUUUUUUUUU S
0T
UU
0V
b0 W
b0 X
bUUUUUUUUUUUUUUUU Y
bUUUUUUUUUUUUUUUU Z
bUUUUUUUUUUUUUUUU [
bXXXXXXXXXXXXXXXX \
bXXXXXXXXXXXXXXXX ]
bXXXXXXXXXXXXXXXX ^
b0000000000000000 _
b0 `
0a
Ub
bXXXXXXXXXXXXXXXX c
bUUUUUUUUUUUUUUUU d
0e
0f
Ug
bXXXXXXXXXXXXXXXX h
bUUUUUUUUUUUUUUUU i
0j
0k
Ul
bXXXXXXXXXXXXXXXX m
bUUUUUUUUUUUUUUUU n
0o
0p
Uq
#10000000000
1!
1"
b1100000000000001 %
b0000000000000000 &
b0000001110001110 '
b1 +
b1100000000000001 ,
b0000000000000000 -
b0000001110001110 .
12
13
b1100000000000001 6
b0000000000000000 7
b0000001110001110 8
b0010000000000000 B
1C
b1100000000000001 D
b0000000000000000 E
b0000001110001110 F
b1100000000000001 G
b0000000000000000 H
b0000001110001110 I
b0011111111111111 K
b0000000000000000 L
b1000001110001110 M
b1100000000000001 N
b0000000000000000 O
b0000001110001110 P
b0011111111111111 Q
b0000000000000000 R
b1000001110001110 S
1T
1U
1V
b0010000000000000 _
1e
1f
1g
1j
1k
1l
1o
1p
1q
#20000000000
0!
03
b1100000000000001 9
b0000000000000000 :
b0000001110001110 ;
b1100000000000001 ?
b1100000000000001 @
b1110001110001110 A
0T
b1100000000000001 Y
b0000000000000000 Z
b0000001110001110 [
b1100000000000001 \
b1100000000000001 ]
b1110001110001110 ^
0b
b1100000000000001 c
0e
b1100000000000001 h
0j
b1110001110001110 m
0o
#30000000000
1!
0"
b0000000000000000 *
b10 +
b0000000000000000 1
02
13
b0000000000000000 <
b0000000000000000 =
b0000000000000000 >
1T
0V
b0000000000000000 d
1e
0f
b0000000000000000 i
1j
0k
b0000000000000000 n
1o
0p
#40000000000
0!
03
0T
0e
0j
0o
#50000000000
1!
b1110001110001110 *
b11 +
b1110001110001110 1
13
b1 5
b1100000000000001 :
b1110001110001110 ;
b1100000000000001 <
b1100000000000001 =
b1110001110001110 >
b1010000000000001 ?
b1110000000000001 @
b1111011001110010 A
b0001001011100100 B
1T
b1 W
b1 X
b1100000000000001 Z
b1110001110001110 [
b1010000000000001 \
b1110000000000001 ]
b1111011001110010 ^
b0001001011100100 _
b1 `
1b
b1010000000000001 c
b1100000000000001 d
1e
b1110000000000001 h
b1100000000000001 i
1j
b1111011001110010 m
b1110001110001110 n
1o
#60000000000
0!
03
0T
0e
0j
0o
#70000000000
1!
b1111011001110010 *
b100 +
b1111011001110010 1
13
b10 5
b1010000000000001 9
b1110000000000001 :
b1111011001110010 ;
b1010000000000001 <
b1110000000000001 =
b1111011001110010 >
b1001100000000001 ?
b1111100000000001 @
b0000000001101101 A
b0000100111111011 B
1T
b10 W
b10 X
b1010000000000001 Y
b1110000000000001 Z
b1111011001110010 [
b1001100000000001 \
b1111100000000001 ]
b0000000001101101 ^
b0000100111111011 _
b10 `
b1001100000000001 c
b1010000000000001 d
1e
b1111100000000001 h
b1110000000000001 i
1j
b0000000001101101 m
b1111011001110010 n
1o
#80000000000
0!
03
0T
0e
0j
0o
#90000000000
1!
b0000000001101101 *
b101 +
b0000000001101101 1
13
b11 5
b1001100000000001 9
b1111100000000001 :
b0000000001101101 ;
b1001100000000001 <
b1111100000000001 =
b0000000001101101 >
b1001100100000001 ?
b1110101100000001 @
b1111101101011100 A
b0000010100010001 B
1T
b11 W
b11 X
b1001100000000001 Y
b1111100000000001 Z
b0000000001101101 [
b1001100100000001 \
b1110101100000001 ]
b1111101101011100 ^
b0000010100010001 _
b11 `
0b
b1001100100000001 c
b1001100000000001 d
1e
b1110101100000001 h
b1111100000000001 i
1j
b1111101101011100 m
b0000000001101101 n
1o
#100000000000
0!
03
0T
0e
0j
0o
#110000000000
1!
b1111101101011100 *
b110 +
b1111101101011100 1
13
b100 5
b1001100100000001 9
b1110101100000001 :
b1111101101011100 ;
b1001100100000001 <
b1110101100000001 =
b1111101101011100 >
b1001011110110001 ?
b1111000101110001 @
b1111110111100111 A
b0000001010001011 B
1T
b100 W
b100 X
b1001100100000001 Y
b1110101100000001 Z
b1111101101011100 [
b1001011110110001 \
b1111000101110001 ]
b1111110111100111 ^
b0000001010001011 _
b100 `
1b
b1001011110110001 c
b1001100100000001 d
1e
b1111000101110001 h
b1110101100000001 i
1j
b1111110111100111 m
b1111101101011100 n
1o
#120000000000
0!
03
0T
0e
0j
0o
#130000000000
1!
b1111110111100111 *
b111 +
b1111110111100111 1
13
b101 5
b1001011110110001 9
b1111000101110001 :
b1111110111100111 ;
b1001011110110001 <
b1111000101110001 =
b1111110111100111 >
b1001011100111100 ?
b1111010010110100 @
b1111111100101101 A
b0000000101000110 B
1T
b101 W
b101 X
b1001011110110001 Y
b1111000101110001 Z
b1111110111100111 [
b1001011100111100 \
b1111010010110100 ]
b1111111100101101 ^
b0000000101000110 _
b101 `
b1001011100111100 c
b1001011110110001 d
1e
b1111010010110100 h
b1111000101110001 i
1j
b1111111100101101 m
b1111110111100111 n
1o
#140000000000
0!
03
0T
0e
0j
0o
#150000000000
1!
b1111111100101101 *
b1000 +
b1111111100101101 1
13
b110 5
b1001011100111100 9
b1111010010110100 :
b1111111100101101 ;
b1001011100111100 <
b1111010010110100 =
b1111111100101101 >
b1001011100001110 ?
b1111011001011000 @
b1111111111010000 A
b0000000010100011 B
1T
b110 W
b110 X
b1001011100111100 Y
b1111010010110100 Z
b1111111100101101 [
b1001011100001110 \
b1111011001011000 ]
b1111111111010000 ^
b0000000010100011 _
b110 `
b1001011100001110 c
b1001011100111100 d
1e
b1111011001011000 h
b1111010010110100 i
1j
b1111111111010000 m
b1111111100101101 n
1o
#160000000000
0!
03
0T
0e
0j
0o
#170000000000
1!
b1111111111010000 *
b1001 +
b1111111111010000 1
13
b111 5
b1001011100001110 9
b1111011001011000 :
b1111111111010000 ;
b1001011100001110 <
b1111011001011000 =
b1111111111010000 >
b1001011011111010 ?
b1111011100101010 @
b0000000000100001 A
b0000000001010001 B
1T
b111 W
b111 X
b1001011100001110 Y
b1111011001011000 Z
b1111111111010000 [
b1001011011111010 \
b1111011100101010 ]
b0000000000100001 ^
b0000000001010001 _
b111 `
b1001011011111010 c
b1001011100001110 d
1e
b1111011100101010 h
b1111011001011000 i
1j
b0000000000100001 m
b1111111111010000 n
1o
#180000000000
0!
03
0T
0e
0j
0o
#190000000000
1!
b0000000000100001 *
b1010 +
b0000000000100001 1
13
b1000 5
b1001011011111010 9
b1111011100101010 :
b0000000000100001 ;
b1001011011111010 <
b1111011100101010 =
b0000000000100001 >
b1001011100000011 ?
b1111011011000000 @
b1111111111111000 A
b0000000000101001 B
1T
b1000 W
b1000 X
b1001011011111010 Y
b1111011100101010 Z
b0000000000100001 [
b1001011100000011 \
b1111011011000000 ]
b1111111111111000 ^
b0000000000101001 _
b1000 `
0b
b1001011100000011 c
b1001011011111010 d
1e
b1111011011000000 h
b1111011100101010 i
1j
b1111111111111000 m
b0000000000100001 n
1o
#200000000000
0!
03
0T
0e
0j
0o
#210000000000
1!
b1111111111111000 *
b1011 +
b1111111111111000 1
13
b1001 5
b1001011100000011 9
b1111011011000000 :
b1111111111111000 ;
b1001011100000011 <
b1111011011000000 =
b1111111111111000 >
b1001011011111110 ?
b1111011011110101 @
b0000000000001100 A
b0000000000010100 B
1T
b1001 W
b1001 X
b1001011100000011 Y
b1111011011000000 Z
b1111111111111000 [
b1001011011111110 \
b1111011011110101 ]
b0000000000001100 ^
b0000000000010100 _
b1001 `
1b
b1001011011111110 c
b1001011100000011 d
1e
b1111011011110101 h
b1111011011000000 i
1j
b0000000000001100 m
b1111111111111000 n
1o
#220000000000
0!
03
0T
0e
0j
0o
#230000000000
1!
b0000000000001100 *
b1100 +
b0000000000001100 1
13
b1010 5
b1001011011111110 9
b1111011011110101 :
b0000000000001100 ;
b1001011011111110 <
b1111011011110101 =
b0000000000001100 >
b1001011100000001 ?
b1111011011011010 @
b0000000000000010 A
b0000000000001010 B
1T
b1010 W
b1010 X
b1001011011111110 Y
b1111011011110101 Z
b0000000000001100 [
b1001011100000001 \
b1111011011011010 ]
b0000000000000010 ^
b0000000000001010 _
b1010 `
0b
b1001011100000001 c
b1001011011111110 d
1e
b1111011011011010 h
b1111011011110101 i
1j
b0000000000000010 m
b0000000000001100 n
1o
#240000000000
0!
03
0T
0e
0j
0o
#250000000000
1!
b0000000000000010 *
b1101 +
b0000000000000010 1
13
b1011 5
b1001011100000001 9
b1111011011011010 :
b0000000000000010 ;
b1001011100000001 <
b1111011011011010 =
b0000000000000010 >
b1001011100000011 ?
b1111011011001100 @
b1111111111111101 A
b0000000000000101 B
1T
b1011 W
b1011 X
b1001011100000001 Y
b1111011011011010 Z
b0000000000000010 [
b1001011100000011 \
b1111011011001100 ]
b1111111111111101 ^
b0000000000000101 _
b1011 `
b1001011100000011 c
b1001011100000001 d
1e
b1111011011001100 h
b1111011011011010 i
1j
b1111111111111101 m
b0000000000000010 n
1o
#260000000000
0!
03
0T
0e
0j
0o
#270000000000
1!
b1111111111111101 *
b1110 +
b1111111111111101 1
13
b1100 5
b1001011100000011 9
b1111011011001100 :
b1111111111111101 ;
b1001011100000011 <
b1111011011001100 =
b1111111111111101 >
b1001011100000010 ?
b1111011011010011 @
b0000000000000000 A
b0000000000000011 B
1T
b1100 W
b1100 X
b1001011100000011 Y
b1111011011001100 Z
b1111111111111101 [
b1001011100000010 \
b1111011011010011 ]
b0000000000000000 ^
b0000000000000011 _
b1100 `
1b
b1001011100000010 c
b1001011100000011 d
1e
b1111011011010011 h
b1111011011001100 i
1j
b0000000000000000 m
b1111111111111101 n
1o
#280000000000
0!
03
0T
0e
0j
0o
#290000000000
1!
b0000000000000000 *
b1111 +
b0000000000000000 1
13
b1101 5
b1001011100000010 9
b1111011011010011 :
b0000000000000000 ;
b1001011100000010 <
b1111011011010011 =
b0000000000000000 >
b1001011100000011 ?
b1111011011001111 @
b1111111111111111 A
b0000000000000001 B
1T
b1101 W
b1101 X
b1001011100000010 Y
b1111011011010011 Z
b0000000000000000 [
b1001011100000011 \
b1111011011001111 ]
b1111111111111111 ^
b0000000000000001 _
b1101 `
0b
b1001011100000011 c
b1001011100000010 d
1e
b1111011011001111 h
b1111011011010011 i
1j
b1111111111111111 m
b0000000000000000 n
1o
#300000000000
0!
03
0T
0e
0j
0o
#310000000000
1!
b1100000001000010 (
b1111101001101100 )
b1111111111111111 *
b10000 +
b1100000001000010 /
b1111101001101100 0
b1111111111111111 1
13
b1110 5
b1001011100000011 9
b1111011011001111 :
b1111111111111111 ;
b1001011100000011 <
b1111011011001111 =
b1111111111111111 >
b1001011100000010 ?
b1111011011010001 @
b1111111111111111 A
b0000000000000000 B
0C
1T
0U
b1110 W
b1110 X
b1001011100000011 Y
b1111011011001111 Z
b1111111111111111 [
b1001011100000010 \
b1111011011010001 ]
b1111111111111111 ^
b0000000000000000 _
b1110 `
1b
b1001011100000010 c
b1001011100000011 d
1e
0g
b1111011011010001 h
b1111011011001111 i
1j
0l
b1111111111111111 m
b1111111111111111 n
1o
0q
#320000000000
0!
03
0T
0e
0j
0o
#330000000000
1!
b0 +
13
1T
1e
1j
1o
#340000000000
0!
03
0T
0e
0j
0o
#350000000000
1!
1"
b0000000000000000 %
b0011111111111111 &
b0101111111111111 '
b0000000000000000 (
b0000000000000000 )
b1 +
b0000000000000000 ,
b0011111111111111 -
b0101111111111111 .
b0000000000000000 /
b0000000000000000 0
12
13
b0 5
b0000000000000000 6
b1100000000000001 7
b1101111111111111 8
b1100000000000001 9
b0000000000000000 :
b0000001110001110 ;
b1100000000000001 ?
b1100000000000001 @
b0000001110001110 A
b0000000000000000 D
b0011111111111111 E
b0101111111111111 F
b0000000000000000 G
b1100000000000001 H
b1101111111111111 I
b0000000000000000 K
b1100000000000001 L
b1101111111111111 M
b0000000000000000 N
b1100000000000001 O
b1101111111111111 P
b0000000000000000 Q
b0011111111111111 R
b0101111111111111 S
1T
1V
b0 W
b1100000000000001 Y
b0000000000000000 Z
b0000001110001110 [
b1100000000000001 \
b1100000000000001 ]
b0000001110001110 ^
b0 `
0b
b1100000000000001 c
1e
1f
b1100000000000001 h
1j
1k
b0000001110001110 m
1o
1p
#360000000000
0!
03
b0000000000000000 9
b1100000000000001 :
b1101111111111111 ;
b1100000000000001 ?
b1101111111111111 A
0T
b0000000000000000 Y
b1100000000000001 Z
b1101111111111111 [
b1100000000000001 \
b1101111111111111 ^
1b
b1100000000000001 c
0e
0j
b1101111111111111 m
0o
#370000000000
1!
0"
b0000000000000000 *
b10 +
b0000000000000000 1
02
13
b0000000000000000 <
b0000000000000000 =
b0000000000000000 >
1T
0V
b0 X
b0000000000000000 d
1e
0f
b0000000000000000 i
1j
0k
b0000000000000000 n
1o
0p
#380000000000
0!
03
0T
0e
0j
0o
#390000000000
1!
b11 +
13
b1111111111111111 A
b0010000000000000 B
1C
1T
1U
b1111111111111111 ^
b0010000000000000 _
1e
1g
1j
1l
b1111111111111111 m
1o
1q
#400000000000
0!
03
0T
0e
0j
0o
#410000000000
1!
b1111111111111111 *
b100 +
b1111111111111111 1
13
b1 5
b1100000000000001 9
b1111111111111111 ;
b1100000000000001 <
b1100000000000001 =
b1111111111111111 >
b1010000000000001 ?
b1110000000000001 @
b0001001011100011 A
b0001001011100100 B
1T
b1 W
b1 X
b1100000000000001 Y
b1111111111111111 [
b1010000000000001 \
b1110000000000001 ]
b0001001011100011 ^
b0001001011100100 _
b1 `
b1010000000000001 c
b1100000000000001 d
1e
b1110000000000001 h
b1100000000000001 i
1j
b0001001011100011 m
b1111111111111111 n
1o
#420000000000
0!
03
0T
0e
0j
0o
#430000000000
1!
b0001001011100011 *
b101 +
b0001001011100011 1
13
b10 5
b1010000000000001 9
b1110000000000001 :
b0001001011100011 ;
b1010000000000001 <
b1110000000000001 =
b0001001011100011 >
b1010100000000001 ?
b1100100000000001 @
b0000100011101000 A
b0000100111111011 B
1T
b10 W
b10 X
b1010000000000001 Y
b1110000000000001 Z
b0001001011100011 [
b1010100000000001 \
b1100100000000001 ]
b0000100011101000 ^
b0000100111111011 _
b10 `
0b
b1010100000000001 c
b1010000000000001 d
1e
b1100100000000001 h
b1110000000000001 i
1j
b0000100011101000 m
b0001001011100011 n
1o
#440000000000
0!
03
0T
0e
0j
0o
#450000000000
1!
b0000100011101000 *
b110 +
b0000100011101000 1
13
b11 5
b1010100000000001 9
b1100100000000001 :
b0000100011101000 ;
b1010100000000001 <
b1100100000000001 =
b0000100011101000 >
b1010111100000001 ?
b1011110100000001 @
b0000001111010111 A
b0000010100010001 B
1T
b11 W
b11 X
b1010100000000001 Y
b1100100000000001 Z
b0000100011101000 [
b1010111100000001 \
b1011110100000001 ]
b0000001111010111 ^
b0000010100010001 _
b11 `
b1010111100000001 c
b1010100000000001 d
1e
b1011110100000001 h
b1100100000000001 i
1j
b0000001111010111 m
b0000100011101000 n
1o
#460000000000
0!
03
0T
0e
0j
0o
#470000000000
1!
b0000001111010111 *
b111 +
b0000001111010111 1
13
b100 5
b1010111100000001 9
b1011110100000001 :
b0000001111010111 ;
b1010111100000001 <
b1011110100000001 =
b0000001111010111 >
b1011001100110001 ?
b1011011111110001 @
b0000000101001100 A
b0000001010001011 B
1T
b100 W
b100 X
b1010111100000001 Y
b1011110100000001 Z
b0000001111010111 [
b1011001100110001 \
b1011011111110001 ]
b0000000101001100 ^
b0000001010001011 _
b100 `
b1011001100110001 c
b1010111100000001 d
1e
b1011011111110001 h
b1011110100000001 i
1j
b0000000101001100 m
b0000001111010111 n
1o
#480000000000
0!
03
0T
0e
0j
0o
#490000000000
1!
b0000000101001100 *
b1000 +
b0000000101001100 1
13
b101 5
b1011001100110001 9
b1011011111110001 :
b0000000101001100 ;
b1011001100110001 <
b1011011111110001 =
b0000000101001100 >
b1011010101110010 ?
b1011010110001010 @
b0000000000000110 A
b0000000101000110 B
1T
b101 W
b101 X
b1011001100110001 Y
b1011011111110001 Z
b0000000101001100 [
b1011010101110010 \
b1011010110001010 ]
b0000000000000110 ^
b0000000101000110 _
b101 `
b1011010101110010 c
b1011001100110001 d
1e
b1011010110001010 h
b1011011111110001 i
1j
b0000000000000110 m
b0000000101001100 n
1o
#500000000000
0!
03
0T
0e
0j
0o
#510000000000
1!
b0000000000000110 *
b1001 +
b0000000000000110 1
13
b110 5
b1011010101110010 9
b1011010110001010 :
b0000000000000110 ;
b1011010101110010 <
b1011010110001010 =
b0000000000000110 >
b1011011010011100 ?
b1011010001011111 @
b1111111101100011 A
b0000000010100011 B
1T
b110 W
b110 X
b1011010101110010 Y
b1011010110001010 Z
b0000000000000110 [
b1011011010011100 \
b1011010001011111 ]
b1111111101100011 ^
b0000000010100011 _
b110 `
b1011011010011100 c
b1011010101110010 d
1e
b1011010001011111 h
b1011010110001010 i
1j
b1111111101100011 m
b0000000000000110 n
1o
#520000000000
0!
03
0T
0e
0j
0o
#530000000000
1!
b1111111101100011 *
b1010 +
b1111111101100011 1
13
b111 5
b1011011010011100 9
b1011010001011111 :
b1111111101100011 ;
b1011011010011100 <
b1011010001011111 =
b1111111101100011 >
b1011011000000100 ?
b1011010011110010 @
b1111111110110100 A
b0000000001010001 B
1T
b111 W
b111 X
b1011011010011100 Y
b1011010001011111 Z
b1111111101100011 [
b1011011000000100 \
b1011010011110010 ]
b1111111110110100 ^
b0000000001010001 _
b111 `
1b
b1011011000000100 c
b1011011010011100 d
1e
b1011010011110010 h
b1011010001011111 i
1j
b1111111110110100 m
b1111111101100011 n
1o
#540000000000
0!
03
0T
0e
0j
0o
#550000000000
1!
b1111111110110100 *
b1011 +
b1111111110110100 1
13
b1000 5
b1011011000000100 9
b1011010011110010 :
b1111111110110100 ;
b1011011000000100 <
b1011010011110010 =
b1111111110110100 >
b1011010110111000 ?
b1011010100111100 @
b1111111111011101 A
b0000000000101001 B
1T
b1000 W
b1000 X
b1011011000000100 Y
b1011010011110010 Z
b1111111110110100 [
b1011010110111000 \
b1011010100111100 ]
b1111111111011101 ^
b0000000000101001 _
b1000 `
b1011010110111000 c
b1011011000000100 d
1e
b1011010100111100 h
b1011010011110010 i
1j
b1111111111011101 m
b1111111110110100 n
1o
#560000000000
0!
03
0T
0e
0j
0o
#570000000000
1!
b1111111111011101 *
b1100 +
b1111111111011101 1
13
b1001 5
b1011010110111000 9
b1011010100111100 :
b1111111111011101 ;
b1011010110111000 <
b1011010100111100 =
b1111111111011101 >
b1011010110010010 ?
b1011010101100010 @
b1111111111110001 A
b0000000000010100 B
1T
b1001 W
b1001 X
b1011010110111000 Y
b1011010100111100 Z
b1111111111011101 [
b1011010110010010 \
b1011010101100010 ]
b1111111111110001 ^
b0000000000010100 _
b1001 `
b1011010110010010 c
b1011010110111000 d
1e
b1011010101100010 h
b1011010100111100 i
1j
b1111111111110001 m
b1111111111011101 n
1o
#580000000000
0!
03
0T
0e
0j
0o
#590000000000
1!
b1111111111110001 *
b1101 +
b1111111111110001 1
13
b1010 5
b1011010110010010 9
b1011010101100010 :
b1111111111110001 ;
b1011010110010010 <
b1011010101100010 =
b1111111111110001 >
b1011010101111111 ?
b1011010101110101 @
b1111111111111011 A
b0000000000001010 B
1T
b1010 W
b1010 X
b1011010110010010 Y
b1011010101100010 Z
b1111111111110001 [
b1011010101111111 \
b1011010101110101 ]
b1111111111111011 ^
b0000000000001010 _
b1010 `
b1011010101111111 c
b1011010110010010 d
1e
b1011010101110101 h
b1011010101100010 i
1j
b1111111111111011 m
b1111111111110001 n
1o
#600000000000
0!
03
0T
0e
0j
0o
#610000000000
1!
b1111111111111011 *
b1110 +
b1111111111111011 1
13
b1011 5
b1011010101111111 9
b1011010101110101 :
b1111111111111011 ;
b1011010101111111 <
b1011010101110101 =
b1111111111111011 >
b1011010101110101 ?
b1011010101111111 @
b0000000000000000 A
b0000000000000101 B
1T
b1011 W
b1011 X
b1011010101111111 Y
b1011010101110101 Z
b1111111111111011 [
b1011010101110101 \
b1011010101111111 ]
b0000000000000000 ^
b0000000000000101 _
b1011 `
b1011010101110101 c
b1011010101111111 d
1e
b1011010101111111 h
b1011010101110101 i
1j
b0000000000000000 m
b1111111111111011 n
1o
#620000000000
0!
03
0T
0e
0j
0o
#630000000000
1!
b0000000000000000 *
b1111 +
b0000000000000000 1
13
b1100 5
b1011010101110101 9
b1011010101111111 :
b0000000000000000 ;
b1011010101110101 <
b1011010101111111 =
b0000000000000000 >
b1011010101111010 ?
b1011010101111010 @
b1111111111111101 A
b0000000000000011 B
1T
b1100 W
b1100 X
b1011010101110101 Y
b1011010101111111 Z
b0000000000000000 [
b1011010101111010 \
b1011010101111010 ]
b1111111111111101 ^
b0000000000000011 _
b1100 `
0b
b1011010101111010 c
b1011010101110101 d
1e
b1011010101111010 h
b1011010101111111 i
1j
b1111111111111101 m
b0000000000000000 n
1o
#640000000000
0!
03
0T
0e
0j
0o
#650000000000
1!
b1111111111111101 *
b10000 +
b1111111111111101 1
13
b1101 5
b1011010101111010 9
b1011010101111010 :
b1111111111111101 ;
b1011010101111010 <
b1011010101111010 =
b1111111111111101 >
b1011010101110111 ?
b1011010101111101 @
b1111111111111110 A
b0000000000000001 B
1T
b1101 W
b1101 X
b1011010101111010 Y
b1011010101111010 Z
b1111111111111101 [
b1011010101110111 \
b1011010101111101 ]
b1111111111111110 ^
b0000000000000001 _
b1101 `
1b
b1011010101110111 c
b1011010101111010 d
1e
b1011010101111101 h
b1011010101111010 i
1j
b1111111111111110 m
b1111111111111101 n
1o
#660000000000
0!
03
0T
0e
0j
0o
#670000000000
1!
b1101001010111111 (
b1101001011000011 )
b1111111111111110 *
b0 +
b1101001010111111 /
b1101001011000011 0
b1111111111111110 1
13
b1110 5
b1011010101110111 9
b1011010101111101 :
b1111111111111110 ;
b1011010101110111 <
b1011010101111101 =
b1111111111111110 >
b1011010101110101 ?
b1011010101111111 @
b1111111111111110 A
b0000000000000000 B
0C
1T
0U
b1110 W
b1110 X
b1011010101110111 Y
b1011010101111101 Z
b1111111111111110 [
b1011010101110101 \
b1011010101111111 ]
b1111111111111110 ^
b0000000000000000 _
b1110 `
b1011010101110101 c
b1011010101110111 d
1e
0g
b1011010101111111 h
b1011010101111101 i
1j
0l
b1111111111111110 m
b1111111111111110 n
1o
0q
#680000000000
0!
03
0T
0e
0j
0o
#690000000000
1!
1"
b0011111111111111 %
b1000111000111000 '
b0000000000000000 (
b0000000000000000 )
b1 +
b0011111111111111 ,
b1000111000111000 .
b0000000000000000 /
b0000000000000000 0
12
13
b0 5
b1100000000000001 6
b0000111000111000 8
b0000000000000000 9
b1100000000000001 :
b1101111111111111 ;
b1100000000000001 ?
b1100000000000001 @
b1101111111111111 A
b0011111111111111 D
b1000111000111000 F
b1100000000000001 G
b0000111000111000 I
b1100000000000001 K
b0000111000111000 M
b1100000000000001 N
b0000111000111000 P
b0011111111111111 Q
b1000111000111000 S
1T
1V
b0 W
b0000000000000000 Y
b1100000000000001 Z
b1101111111111111 [
b1100000000000001 \
b1100000000000001 ]
b1101111111111111 ^
b0 `
b1100000000000001 c
1e
1f
b1100000000000001 h
1j
1k
b1101111111111111 m
1o
1p
#700000000000
0!
03
b1100000000000001 9
b0000111000111000 ;
b0000000000000000 ?
b1000000000000010 @
b0000111000111000 A
0T
b1100000000000001 Y
b0000111000111000 [
b0000000000000000 \
b1000000000000010 ]
b0000111000111000 ^
0b
b0000000000000000 c
0e
b1000000000000010 h
0j
b0000111000111000 m
0o
#710000000000
1!
0"
b0000000000000000 *
b10 +
b0000000000000000 1
02
13
b0000000000000000 <
b0000000000000000 =
b0000000000000000 >
1T
0V
b0 X
b0000000000000000 d
1e
0f
b0000000000000000 i
1j
0k
b0000000000000000 n
1o
0p
#720000000000
0!
03
0T
0e
0j
0o
#730000000000
1!
b11 +
13
b1110111000111000 A
b0010000000000000 B
1C
1T
1U
b1110111000111000 ^
b0010000000000000 _
1e
1g
1j
1l
b1110111000111000 m
1o
1q
#740000000000
0!
03
0T
0e
0j
0o
#750000000000
1!
b1110111000111000 *
b100 +
b1110111000111000 1
13
b1 5
b0000000000000000 9
b1000000000000010 :
b1110111000111000 ;
b1000000000000010 =
b1110111000111000 >
b1100000000000001 ?
b1000000000000010 @
b0000000100011100 A
b0001001011100100 B
1T
b1 W
b1 X
b0000000000000000 Y
b1000000000000010 Z
b1110111000111000 [
b1100000000000001 \
b1000000000000010 ]
b0000000100011100 ^
b0001001011100100 _
b1 `
1b
b1100000000000001 c
1e
b1000000000000010 h
b1000000000000010 i
1j
b0000000100011100 m
b1110111000111000 n
1o
#760000000000
0!
03
0T
0e
0j
0o
