cordic_tb.vcd
$date
  Thu Jan 30 21:54:02 2025
$end
$version
  GHDL v0
$end
$timescale
  1 fs
$end
$scope module standard $end
$upscope $end
$scope module std_logic_1164 $end
$upscope $end
$scope module numeric_std $end
$upscope $end
$scope module math_real $end
$upscope $end
$scope module textio $end
$upscope $end
$scope module utils $end
$upscope $end
$scope module cordic_tb $end
$var reg 1 ! clk $end
$var reg 1 " rst $end
$var reg 1 # req $end
$var reg 1 $ rot0_vec1 $end
$var reg 16 % x_in[15:0] $end
$var reg 16 & y_in[15:0] $end
$var reg 16 ' z_in[15:0] $end
$var reg 16 ( x_out[15:0] $end
$var reg 16 ) y_out[15:0] $end
$var reg 16 * z_out[15:0] $end
$var integer 32 + count $end
$scope module dut_cordic $end
$var reg 16 , x0[15:0] $end
$var reg 16 - y0[15:0] $end
$var reg 16 . z0[15:0] $end
$var reg 16 / xr[15:0] $end
$var reg 16 0 yr[15:0] $end
$var reg 16 1 zr[15:0] $end
$var reg 1 2 start $end
$var reg 1 3 clk $end
$var reg 1 4 mode $end
$var integer 32 5 i $end
$var reg 16 6 x_pre[15:0] $end
$var reg 16 7 y_pre[15:0] $end
$var reg 16 8 z_pre[15:0] $end
$var reg 16 9 x_in[15:0] $end
$var reg 16 : y_in[15:0] $end
$var reg 16 ; z_in[15:0] $end
$var reg 16 < x_act[15:0] $end
$var reg 16 = y_act[15:0] $end
$var reg 16 > z_act[15:0] $end
$var reg 16 ? x_next[15:0] $end
$var reg 16 @ y_next[15:0] $end
$var reg 16 A z_next[15:0] $end
$var reg 16 B beta[15:0] $end
$var reg 1 C count_en $end
$var integer 32 D gain $end
$scope module precordic $end
$var reg 16 E x_in[15:0] $end
$var reg 16 F y_in[15:0] $end
$var reg 16 G z_in[15:0] $end
$var reg 16 H x_out[15:0] $end
$var reg 16 I y_out[15:0] $end
$var reg 16 J z_out[15:0] $end
$var reg 1 K mode $end
$var reg 16 L x_in_2c[15:0] $end
$var reg 16 M y_in_2c[15:0] $end
$var reg 16 N z_in_inv[15:0] $end
$var reg 16 O x_rot[15:0] $end
$var reg 16 P y_rot[15:0] $end
$var reg 16 Q z_rot[15:0] $end
$var reg 16 R x_vec[15:0] $end
$var reg 16 S y_vec[15:0] $end
$var reg 16 T z_vec[15:0] $end
$upscope $end
$scope module counter $end
$var reg 1 U clk $end
$var reg 1 V ena $end
$var reg 1 W rst $end
$var integer 32 X count $end
$var integer 32 Y aux $end
$upscope $end
$scope module cordic_stage $end
$var reg 16 Z x_in[15:0] $end
$var reg 16 [ y_in[15:0] $end
$var reg 16 \ z_in[15:0] $end
$var reg 16 ] x_out[15:0] $end
$var reg 16 ^ y_out[15:0] $end
$var reg 16 _ z_out[15:0] $end
$var reg 16 ` beta[15:0] $end
$var integer 32 a shift $end
$var reg 1 b mode $end
$var reg 1 c di $end
$upscope $end
$scope module reg_x $end
$var reg 16 d di[15:0] $end
$var reg 16 e qo[15:0] $end
$var reg 1 f clk $end
$var reg 1 g rst $end
$upscope $end
$scope module reg_y $end
$var reg 16 h di[15:0] $end
$var reg 16 i qo[15:0] $end
$var reg 1 j clk $end
$var reg 1 k rst $end
$upscope $end
$scope module reg_z $end
$var reg 16 l di[15:0] $end
$var reg 16 m qo[15:0] $end
$var reg 1 n clk $end
$var reg 1 o rst $end
$upscope $end
$upscope $end
$upscope $end
$enddefinitions $end
#0
0!
0"
0#
0$
bUUUUUUUUUUUUUUUU %
bUUUUUUUUUUUUUUUU &
bUUUUUUUUUUUUUUUU '
bUUUUUUUUUUUUUUUU (
bUUUUUUUUUUUUUUUU )
bUUUUUUUUUUUUUUUU *
b0 +
bUUUUUUUUUUUUUUUU ,
bUUUUUUUUUUUUUUUU -
bUUUUUUUUUUUUUUUU .
bUUUUUUUUUUUUUUUU /
bUUUUUUUUUUUUUUUU 0
bUUUUUUUUUUUUUUUU 1
02
03
04
b0 5
bUUUUUUUUUUUUUUUU 6
bUUUUUUUUUUUUUUUU 7
bUUUUUUUUUUUUUUUU 8
bUUUUUUUUUUUUUUUU 9
bUUUUUUUUUUUUUUUU :
bUUUUUUUUUUUUUUUU ;
bUUUUUUUUUUUUUUUU <
bUUUUUUUUUUUUUUUU =
bUUUUUUUUUUUUUUUU >
bXXXXXXXXXXXXXXXX ?
bXXXXXXXXXXXXXXXX @
bXXXXXXXXXXXXXXXX A
b0000000000000000 B
UC
b10000000000000000000000000000000 D
bUUUUUUUUUUUUUUUU E
bUUUUUUUUUUUUUUUU F
bUUUUUUUUUUUUUUUU G
bUUUUUUUUUUUUUUUU H
bUUUUUUUUUUUUUUUU I
bUUUUUUUUUUUUUUUU J
0K
bXXXXXXXXXXXXXXXX L
bXXXXXXXXXXXXXXXX M
bUUUUUUUUUUUUUUUU N
bUUUUUUUUUUUUUUUU O
bUUUUUUUUUUUUUUUU P
bUUUUUUUUUUUUUUUU Q
bUUUUUUUUUUUUUUUU R
bUUUUUUUUUUUUUUUU S
bUUUUUUUUUUUUUUUU T
0U
UV
0W
b0 X
b0 Y
bUUUUUUUUUUUUUUUU Z
bUUUUUUUUUUUUUUUU [
bUUUUUUUUUUUUUUUU \
bXXXXXXXXXXXXXXXX ]
bXXXXXXXXXXXXXXXX ^
bXXXXXXXXXXXXXXXX _
b0000000000000000 `
b0 a
0b
Uc
bXXXXXXXXXXXXXXXX d
bUUUUUUUUUUUUUUUU e
0f
0g
bXXXXXXXXXXXXXXXX h
bUUUUUUUUUUUUUUUU i
0j
0k
bXXXXXXXXXXXXXXXX l
bUUUUUUUUUUUUUUUU m
0n
0o
#10000000000
1!
1"
b0001000000000000 %
b0000000000000000 &
b0010000000000000 '
bXXXXXXXXXXXXXXXX (
bXXXXXXXXXXXXXXXX )
bXXXXXXXXXXXXXXXX *
b1 +
b0001000000000000 ,
b0000000000000000 -
b0010000000000000 .
bXXXXXXXXXXXXXXXX /
bXXXXXXXXXXXXXXXX 0
bXXXXXXXXXXXXXXXX 1
12
13
b0001000000000000 6
b0000000000000000 7
b0010000000000000 8
bXXXXXXXXXXXXXXXX <
bXXXXXXXXXXXXXXXX =
bXXXXXXXXXXXXXXXX >
b0010000000000000 B
1C
b0001000000000000 E
b0000000000000000 F
b0010000000000000 G
b0001000000000000 H
b0000000000000000 I
b0010000000000000 J
b1111000000000000 L
b0000000000000000 M
b1010000000000000 N
b0001000000000000 O
b0000000000000000 P
b0010000000000000 Q
b0001000000000000 R
b0000000000000000 S
b0010000000000000 T
1U
1V
1W
b0010000000000000 `
bXXXXXXXXXXXXXXXX e
1f
1g
bXXXXXXXXXXXXXXXX i
1j
1k
bXXXXXXXXXXXXXXXX m
1n
1o
#20000000000
0!
03
b0001000000000000 9
b0000000000000000 :
b0010000000000000 ;
b0001000000000000 ?
b0001000000000000 @
b0000000000000000 A
0U
b0001000000000000 Z
b0000000000000000 [
b0010000000000000 \
b0001000000000000 ]
b0001000000000000 ^
b0000000000000000 _
0c
b0001000000000000 d
0f
b0001000000000000 h
0j
b0000000000000000 l
0n
#30000000000
1!
0"
b0000000000000000 (
b0000000000000000 )
b0000000000000000 *
b10 +
b0000000000000000 /
b0000000000000000 0
b0000000000000000 1
02
13
b0000000000000000 <
b0000000000000000 =
b0000000000000000 >
1U
0W
b0000000000000000 e
1f
0g
b0000000000000000 i
1j
0k
b0000000000000000 m
1n
0o
#40000000000
0!
03
0U
0f
0j
0n
#50000000000
1!
b0001000000000000 (
b0001000000000000 )
b11 +
b0001000000000000 /
b0001000000000000 0
13
b1 5
b0001000000000000 :
b0000000000000000 ;
b0001000000000000 <
b0001000000000000 =
b0000100000000000 ?
b0001100000000000 @
b1110110100011100 A
b0001001011100100 B
1U
b1 X
b1 Y
b0001000000000000 [
b0000000000000000 \
b0000100000000000 ]
b0001100000000000 ^
b1110110100011100 _
b0001001011100100 `
b1 a
b0000100000000000 d
b0001000000000000 e
1f
b0001100000000000 h
b0001000000000000 i
1j
b1110110100011100 l
1n
#60000000000
0!
03
0U
0f
0j
0n
#70000000000
1!
b0000100000000000 (
b0001100000000000 )
b1110110100011100 *
b100 +
b0000100000000000 /
b0001100000000000 0
b1110110100011100 1
13
b10 5
b0000100000000000 9
b0001100000000000 :
b1110110100011100 ;
b0000100000000000 <
b0001100000000000 =
b1110110100011100 >
b0000111000000000 ?
b0001011000000000 @
b1111011100010111 A
b0000100111111011 B
1U
b10 X
b10 Y
b0000100000000000 Z
b0001100000000000 [
b1110110100011100 \
b0000111000000000 ]
b0001011000000000 ^
b1111011100010111 _
b0000100111111011 `
b10 a
1c
b0000111000000000 d
b0000100000000000 e
1f
b0001011000000000 h
b0001100000000000 i
1j
b1111011100010111 l
b1110110100011100 m
1n
#80000000000
0!
03
0U
0f
0j
0n
#90000000000
1!
b0000111000000000 (
b0001011000000000 )
b1111011100010111 *
b101 +
b0000111000000000 /
b0001011000000000 0
b1111011100010111 1
13
b11 5
b0000111000000000 9
b0001011000000000 :
b1111011100010111 ;
b0000111000000000 <
b0001011000000000 =
b1111011100010111 >
b0001000011000000 ?
b0001010001000000 @
b1111110000101000 A
b0000010100010001 B
1U
b11 X
b11 Y
b0000111000000000 Z
b0001011000000000 [
b1111011100010111 \
b0001000011000000 ]
b0001010001000000 ^
b1111110000101000 _
b0000010100010001 `
b11 a
b0001000011000000 d
b0000111000000000 e
1f
b0001010001000000 h
b0001011000000000 i
1j
b1111110000101000 l
b1111011100010111 m
1n
#100000000000
0!
03
0U
0f
0j
0n
#110000000000
1!
b0001000011000000 (
b0001010001000000 )
b1111110000101000 *
b110 +
b0001000011000000 /
b0001010001000000 0
b1111110000101000 1
13
b100 5
b0001000011000000 9
b0001010001000000 :
b1111110000101000 ;
b0001000011000000 <
b0001010001000000 =
b1111110000101000 >
b0001001000000100 ?
b0001001100110100 @
b1111111010110011 A
b0000001010001011 B
1U
b100 X
b100 Y
b0001000011000000 Z
b0001010001000000 [
b1111110000101000 \
b0001001000000100 ]
b0001001100110100 ^
b1111111010110011 _
b0000001010001011 `
b100 a
b0001001000000100 d
b0001000011000000 e
1f
b0001001100110100 h
b0001010001000000 i
1j
b1111111010110011 l
b1111110000101000 m
1n
#120000000000
0!
03
0U
0f
0j
0n
#130000000000
1!
b0001001000000100 (
b0001001100110100 )
b1111111010110011 *
b111 +
b0001001000000100 /
b0001001100110100 0
b1111111010110011 1
13
b101 5
b0001001000000100 9
b0001001100110100 :
b1111111010110011 ;
b0001001000000100 <
b0001001100110100 =
b1111111010110011 >
b0001001010011101 ?
b0001001010100100 @
b1111111111111001 A
b0000000101000110 B
1U
b101 X
b101 Y
b0001001000000100 Z
b0001001100110100 [
b1111111010110011 \
b0001001010011101 ]
b0001001010100100 ^
b1111111111111001 _
b0000000101000110 `
b101 a
b0001001010011101 d
b0001001000000100 e
1f
b0001001010100100 h
b0001001100110100 i
1j
b1111111111111001 l
b1111111010110011 m
1n
#140000000000
0!
03
0U
0f
0j
0n
#150000000000
1!
b0001001010011101 (
b0001001010100100 )
b1111111111111001 *
b1000 +
b0001001010011101 /
b0001001010100100 0
b1111111111111001 1
13
b110 5
b0001001010011101 9
b0001001010100100 :
b1111111111111001 ;
b0001001010011101 <
b0001001010100100 =
b1111111111111001 >
b0001001011100111 ?
b0001001001011010 @
b0000000010011100 A
b0000000010100011 B
1U
b110 X
b110 Y
b0001001010011101 Z
b0001001010100100 [
b1111111111111001 \
b0001001011100111 ]
b0001001001011010 ^
b0000000010011100 _
b0000000010100011 `
b110 a
b0001001011100111 d
b0001001010011101 e
1f
b0001001001011010 h
b0001001010100100 i
1j
b0000000010011100 l
b1111111111111001 m
1n
#160000000000
0!
03
0U
0f
0j
0n
#170000000000
1!
b0001001011100111 (
b0001001001011010 )
b0000000010011100 *
b1001 +
b0001001011100111 /
b0001001001011010 0
b0000000010011100 1
13
b111 5
b0001001011100111 9
b0001001001011010 :
b0000000010011100 ;
b0001001011100111 <
b0001001001011010 =
b0000000010011100 >
b0001001011000011 ?
b0001001001111111 @
b0000000001001011 A
b0000000001010001 B
1U
b111 X
b111 Y
b0001001011100111 Z
b0001001001011010 [
b0000000010011100 \
b0001001011000011 ]
b0001001001111111 ^
b0000000001001011 _
b0000000001010001 `
b111 a
0c
b0001001011000011 d
b0001001011100111 e
1f
b0001001001111111 h
b0001001001011010 i
1j
b0000000001001011 l
b0000000010011100 m
1n
#180000000000
0!
03
0U
0f
0j
0n
#190000000000
1!
b0001001011000011 (
b0001001001111111 )
b0000000001001011 *
b1010 +
b0001001011000011 /
b0001001001111111 0
b0000000001001011 1
13
b1000 5
b0001001011000011 9
b0001001001111111 :
b0000000001001011 ;
b0001001011000011 <
b0001001001111111 =
b0000000001001011 >
b0001001010110001 ?
b0001001010010001 @
b0000000000100010 A
b0000000000101001 B
1U
b1000 X
b1000 Y
b0001001011000011 Z
b0001001001111111 [
b0000000001001011 \
b0001001010110001 ]
b0001001010010001 ^
b0000000000100010 _
b0000000000101001 `
b1000 a
b0001001010110001 d
b0001001011000011 e
1f
b0001001010010001 h
b0001001001111111 i
1j
b0000000000100010 l
b0000000001001011 m
1n
#200000000000
0!
03
0U
0f
0j
0n
#210000000000
1!
b0001001010110001 (
b0001001010010001 )
b0000000000100010 *
b1011 +
b0001001010110001 /
b0001001010010001 0
b0000000000100010 1
13
b1001 5
b0001001010110001 9
b0001001010010001 :
b0000000000100010 ;
b0001001010110001 <
b0001001010010001 =
b0000000000100010 >
b0001001010101000 ?
b0001001010011010 @
b0000000000001110 A
b0000000000010100 B
1U
b1001 X
b1001 Y
b0001001010110001 Z
b0001001010010001 [
b0000000000100010 \
b0001001010101000 ]
b0001001010011010 ^
b0000000000001110 _
b0000000000010100 `
b1001 a
b0001001010101000 d
b0001001010110001 e
1f
b0001001010011010 h
b0001001010010001 i
1j
b0000000000001110 l
b0000000000100010 m
1n
#220000000000
0!
03
0U
0f
0j
0n
#230000000000
1!
b0001001010101000 (
b0001001010011010 )
b0000000000001110 *
b1100 +
b0001001010101000 /
b0001001010011010 0
b0000000000001110 1
13
b1010 5
b0001001010101000 9
b0001001010011010 :
b0000000000001110 ;
b0001001010101000 <
b0001001010011010 =
b0000000000001110 >
b0001001010100100 ?
b0001001010011110 @
b0000000000000100 A
b0000000000001010 B
1U
b1010 X
b1010 Y
b0001001010101000 Z
b0001001010011010 [
b0000000000001110 \
b0001001010100100 ]
b0001001010011110 ^
b0000000000000100 _
b0000000000001010 `
b1010 a
b0001001010100100 d
b0001001010101000 e
1f
b0001001010011110 h
b0001001010011010 i
1j
b0000000000000100 l
b0000000000001110 m
1n
#240000000000
0!
03
0U
0f
0j
0n
#250000000000
1!
b0001001010100100 (
b0001001010011110 )
b0000000000000100 *
b1101 +
b0001001010100100 /
b0001001010011110 0
b0000000000000100 1
13
b1011 5
b0001001010100100 9
b0001001010011110 :
b0000000000000100 ;
b0001001010100100 <
b0001001010011110 =
b0000000000000100 >
b0001001010100010 ?
b0001001010100000 @
b1111111111111111 A
b0000000000000101 B
1U
b1011 X
b1011 Y
b0001001010100100 Z
b0001001010011110 [
b0000000000000100 \
b0001001010100010 ]
b0001001010100000 ^
b1111111111111111 _
b0000000000000101 `
b1011 a
b0001001010100010 d
b0001001010100100 e
1f
b0001001010100000 h
b0001001010011110 i
1j
b1111111111111111 l
b0000000000000100 m
1n
#260000000000
0!
03
0U
0f
0j
0n
#270000000000
1!
b0001001010100010 (
b0001001010100000 )
b1111111111111111 *
b1110 +
b0001001010100010 /
b0001001010100000 0
b1111111111111111 1
13
b1100 5
b0001001010100010 9
b0001001010100000 :
b1111111111111111 ;
b0001001010100010 <
b0001001010100000 =
b1111111111111111 >
b0001001010100011 ?
b0001001010011111 @
b0000000000000010 A
b0000000000000011 B
1U
b1100 X
b1100 Y
b0001001010100010 Z
b0001001010100000 [
b1111111111111111 \
b0001001010100011 ]
b0001001010011111 ^
b0000000000000010 _
b0000000000000011 `
b1100 a
1c
b0001001010100011 d
b0001001010100010 e
1f
b0001001010011111 h
b0001001010100000 i
1j
b0000000000000010 l
b1111111111111111 m
1n
#280000000000
0!
03
0U
0f
0j
0n
#290000000000
1!
b0001001010100011 (
b0001001010011111 )
b0000000000000010 *
b1111 +
b0001001010100011 /
b0001001010011111 0
b0000000000000010 1
13
b1101 5
b0001001010100011 9
b0001001010011111 :
b0000000000000010 ;
b0001001010100011 <
b0001001010011111 =
b0000000000000010 >
b0001001010100011 ?
b0001001010011111 @
b0000000000000001 A
b0000000000000001 B
1U
b1101 X
b1101 Y
b0001001010100011 Z
b0001001010011111 [
b0000000000000010 \
b0001001010100011 ]
b0001001010011111 ^
b0000000000000001 _
b0000000000000001 `
b1101 a
0c
b0001001010100011 d
b0001001010100011 e
1f
b0001001010011111 h
b0001001010011111 i
1j
b0000000000000001 l
b0000000000000010 m
1n
#300000000000
0!
03
0U
0f
0j
0n
#310000000000
1!
b0000000000000001 *
b10000 +
b0000000000000001 1
13
b1110 5
b0000000000000001 ;
b0000000000000001 >
b0000000000000001 A
b0000000000000000 B
0C
1U
0V
b1110 X
b1110 Y
b0000000000000001 \
b0000000000000001 _
b0000000000000000 `
b1110 a
1f
1j
b0000000000000001 l
b0000000000000001 m
1n
#320000000000
0!
03
0U
0f
0j
0n
#330000000000
1!
b0 +
13
1U
1f
1j
1n
#340000000000
0!
03
0U
0f
0j
0n
#350000000000
1!
1"
b0000000000000000 %
b0001000000000000 &
b0101111111111111 '
b1 +
b0000000000000000 ,
b0001000000000000 -
b0101111111111111 .
12
13
b0 5
b0000000000000000 6
b1111000000000000 7
b1101111111111111 8
b0001000000000000 9
b0000000000000000 :
b0010000000000000 ;
b0001000000000000 ?
b0001000000000000 @
b0010000000000000 A
b0000000000000000 E
b0001000000000000 F
b0101111111111111 G
b0000000000000000 H
b1111000000000000 I
b1101111111111111 J
b0000000000000000 L
b1111000000000000 M
b1101111111111111 N
b0000000000000000 O
b1111000000000000 P
b1101111111111111 Q
b0000000000000000 R
b0001000000000000 S
b0101111111111111 T
1U
1W
b0 X
b0001000000000000 Z
b0000000000000000 [
b0010000000000000 \
b0001000000000000 ]
b0001000000000000 ^
b0010000000000000 _
b0 a
b0001000000000000 d
1f
1g
b0001000000000000 h
1j
1k
b0010000000000000 l
1n
1o
#360000000000
0!
03
b0000000000000000 9
b1111000000000000 :
b1101111111111111 ;
b1111000000000000 ?
b1111000000000000 @
b1101111111111111 A
0U
b0000000000000000 Z
b1111000000000000 [
b1101111111111111 \
b1111000000000000 ]
b1111000000000000 ^
b1101111111111111 _
1c
b1111000000000000 d
0f
b1111000000000000 h
0j
b1101111111111111 l
0n
#370000000000
1!
0"
b0000000000000000 (
b0000000000000000 )
b0000000000000000 *
b10 +
b0000000000000000 /
b0000000000000000 0
b0000000000000000 1
02
13
b0000000000000000 <
b0000000000000000 =
b0000000000000000 >
1U
0W
b0 Y
b0000000000000000 e
1f
0g
b0000000000000000 i
1j
0k
b0000000000000000 m
1n
0o
#380000000000
0!
03
0U
0f
0j
0n
#390000000000
1!
b1111000000000000 (
b1111000000000000 )
b1101111111111111 *
b11 +
b1111000000000000 /
b1111000000000000 0
b1101111111111111 1
13
b1111000000000000 <
b1111000000000000 =
b1101111111111111 >
b1111111111111111 A
b0010000000000000 B
1C
1U
1V
b1111111111111111 _
b0010000000000000 `
b1111000000000000 e
1f
b1111000000000000 i
1j
b1111111111111111 l
b1101111111111111 m
1n
#400000000000
0!
03
0U
0f
0j
0n
#410000000000
1!
b1111111111111111 *
b100 +
b1111111111111111 1
13
b1 5
b1111000000000000 9
b1111111111111111 ;
b1111111111111111 >
b1110100000000000 ?
b1111100000000000 @
b0001001011100011 A
b0001001011100100 B
1U
b1 X
b1 Y
b1111000000000000 Z
b1111111111111111 \
b1110100000000000 ]
b1111100000000000 ^
b0001001011100011 _
b0001001011100100 `
b1 a
b1110100000000000 d
1f
b1111100000000000 h
1j
b0001001011100011 l
b1111111111111111 m
1n
#420000000000
0!
03
0U
0f
0j
0n
#430000000000
1!
b1110100000000000 (
b1111100000000000 )
b0001001011100011 *
b101 +
b1110100000000000 /
b1111100000000000 0
b0001001011100011 1
13
b10 5
b1110100000000000 9
b1111100000000000 :
b0001001011100011 ;
b1110100000000000 <
b1111100000000000 =
b0001001011100011 >
b1110101000000000 ?
b1111001000000000 @
b0000100011101000 A
b0000100111111011 B
1U
b10 X
b10 Y
b1110100000000000 Z
b1111100000000000 [
b0001001011100011 \
b1110101000000000 ]
b1111001000000000 ^
b0000100011101000 _
b0000100111111011 `
b10 a
0c
b1110101000000000 d
b1110100000000000 e
1f
b1111001000000000 h
b1111100000000000 i
1j
b0000100011101000 l
b0001001011100011 m
1n
#440000000000
0!
03
0U
0f
0j
0n
#450000000000
1!
b1110101000000000 (
b1111001000000000 )
b0000100011101000 *
b110 +
b1110101000000000 /
b1111001000000000 0
b0000100011101000 1
13
b11 5
b1110101000000000 9
b1111001000000000 :
b0000100011101000 ;
b1110101000000000 <
b1111001000000000 =
b0000100011101000 >
b1110101111000000 ?
b1110111101000000 @
b0000001111010111 A
b0000010100010001 B
1U
b11 X
b11 Y
b1110101000000000 Z
b1111001000000000 [
b0000100011101000 \
b1110101111000000 ]
b1110111101000000 ^
b0000001111010111 _
b0000010100010001 `
b11 a
b1110101111000000 d
b1110101000000000 e
1f
b1110111101000000 h
b1111001000000000 i
1j
b0000001111010111 l
b0000100011101000 m
1n
#460000000000
0!
03
0U
0f
0j
0n
#470000000000
1!
b1110101111000000 (
b1110111101000000 )
b0000001111010111 *
b111 +
b1110101111000000 /
b1110111101000000 0
b0000001111010111 1
13
b100 5
b1110101111000000 9
b1110111101000000 :
b0000001111010111 ;
b1110101111000000 <
b1110111101000000 =
b0000001111010111 >
b1110110011001100 ?
b1110110111111100 @
b0000000101001100 A
b0000001010001011 B
1U
b100 X
b100 Y
b1110101111000000 Z
b1110111101000000 [
b0000001111010111 \
b1110110011001100 ]
b1110110111111100 ^
b0000000101001100 _
b0000001010001011 `
b100 a
b1110110011001100 d
b1110101111000000 e
1f
b1110110111111100 h
b1110111101000000 i
1j
b0000000101001100 l
b0000001111010111 m
1n
#480000000000
0!
03
0U
0f
0j
0n
#490000000000
1!
b1110110011001100 (
b1110110111111100 )
b0000000101001100 *
b1000 +
b1110110011001100 /
b1110110111111100 0
b0000000101001100 1
13
b101 5
b1110110011001100 9
b1110110111111100 :
b0000000101001100 ;
b1110110011001100 <
b1110110111111100 =
b0000000101001100 >
b1110110101011101 ?
b1110110101100010 @
b0000000000000110 A
b0000000101000110 B
1U
b101 X
b101 Y
b1110110011001100 Z
b1110110111111100 [
b0000000101001100 \
b1110110101011101 ]
b1110110101100010 ^
b0000000000000110 _
b0000000101000110 `
b101 a
b1110110101011101 d
b1110110011001100 e
1f
b1110110101100010 h
b1110110111111100 i
1j
b0000000000000110 l
b0000000101001100 m
1n
#500000000000
0!
03
0U
0f
0j
0n
#510000000000
1!
b1110110101011101 (
b1110110101100010 )
b0000000000000110 *
b1001 +
b1110110101011101 /
b1110110101100010 0
b0000000000000110 1
13
b110 5
b1110110101011101 9
b1110110101100010 :
b0000000000000110 ;
b1110110101011101 <
b1110110101100010 =
b0000000000000110 >
b1110110110101000 ?
b1110110100010111 @
b1111111101100011 A
b0000000010100011 B
1U
b110 X
b110 Y
b1110110101011101 Z
b1110110101100010 [
b0000000000000110 \
b1110110110101000 ]
b1110110100010111 ^
b1111111101100011 _
b0000000010100011 `
b110 a
b1110110110101000 d
b1110110101011101 e
1f
b1110110100010111 h
b1110110101100010 i
1j
b1111111101100011 l
b0000000000000110 m
1n
#520000000000
0!
03
0U
0f
0j
0n
#530000000000
1!
b1110110110101000 (
b1110110100010111 )
b1111111101100011 *
b1010 +
b1110110110101000 /
b1110110100010111 0
b1111111101100011 1
13
b111 5
b1110110110101000 9
b1110110100010111 :
b1111111101100011 ;
b1110110110101000 <
b1110110100010111 =
b1111111101100011 >
b1110110110000010 ?
b1110110100111100 @
b1111111110110100 A
b0000000001010001 B
1U
b111 X
b111 Y
b1110110110101000 Z
b1110110100010111 [
b1111111101100011 \
b1110110110000010 ]
b1110110100111100 ^
b1111111110110100 _
b0000000001010001 `
b111 a
1c
b1110110110000010 d
b1110110110101000 e
1f
b1110110100111100 h
b1110110100010111 i
1j
b1111111110110100 l
b1111111101100011 m
1n
#540000000000
0!
03
0U
0f
0j
0n
#550000000000
1!
b1110110110000010 (
b1110110100111100 )
b1111111110110100 *
b1011 +
b1110110110000010 /
b1110110100111100 0
b1111111110110100 1
13
b1000 5
b1110110110000010 9
b1110110100111100 :
b1111111110110100 ;
b1110110110000010 <
b1110110100111100 =
b1111111110110100 >
b1110110101101111 ?
b1110110101001111 @
b1111111111011101 A
b0000000000101001 B
1U
b1000 X
b1000 Y
b1110110110000010 Z
b1110110100111100 [
b1111111110110100 \
b1110110101101111 ]
b1110110101001111 ^
b1111111111011101 _
b0000000000101001 `
b1000 a
b1110110101101111 d
b1110110110000010 e
1f
b1110110101001111 h
b1110110100111100 i
1j
b1111111111011101 l
b1111111110110100 m
1n
#560000000000
0!
03
0U
0f
0j
0n
#570000000000
1!
b1110110101101111 (
b1110110101001111 )
b1111111111011101 *
b1100 +
b1110110101101111 /
b1110110101001111 0
b1111111111011101 1
13
b1001 5
b1110110101101111 9
b1110110101001111 :
b1111111111011101 ;
b1110110101101111 <
b1110110101001111 =
b1111111111011101 >
b1110110101100101 ?
b1110110101011001 @
b1111111111110001 A
b0000000000010100 B
1U
b1001 X
b1001 Y
b1110110101101111 Z
b1110110101001111 [
b1111111111011101 \
b1110110101100101 ]
b1110110101011001 ^
b1111111111110001 _
b0000000000010100 `
b1001 a
b1110110101100101 d
b1110110101101111 e
1f
b1110110101011001 h
b1110110101001111 i
1j
b1111111111110001 l
b1111111111011101 m
1n
#580000000000
0!
03
0U
0f
0j
0n
#590000000000
1!
b1110110101100101 (
b1110110101011001 )
b1111111111110001 *
b1101 +
b1110110101100101 /
b1110110101011001 0
b1111111111110001 1
13
b1010 5
b1110110101100101 9
b1110110101011001 :
b1111111111110001 ;
b1110110101100101 <
b1110110101011001 =
b1111111111110001 >
b1110110101100000 ?
b1110110101011110 @
b1111111111111011 A
b0000000000001010 B
1U
b1010 X
b1010 Y
b1110110101100101 Z
b1110110101011001 [
b1111111111110001 \
b1110110101100000 ]
b1110110101011110 ^
b1111111111111011 _
b0000000000001010 `
b1010 a
b1110110101100000 d
b1110110101100101 e
1f
b1110110101011110 h
b1110110101011001 i
1j
b1111111111111011 l
b1111111111110001 m
1n
#600000000000
0!
03
0U
0f
0j
0n
#610000000000
1!
b1110110101100000 (
b1110110101011110 )
b1111111111111011 *
b1110 +
b1110110101100000 /
b1110110101011110 0
b1111111111111011 1
13
b1011 5
b1110110101100000 9
b1110110101011110 :
b1111111111111011 ;
b1110110101100000 <
b1110110101011110 =
b1111111111111011 >
b1110110101011101 ?
b1110110101100001 @
b0000000000000000 A
b0000000000000101 B
1U
b1011 X
b1011 Y
b1110110101100000 Z
b1110110101011110 [
b1111111111111011 \
b1110110101011101 ]
b1110110101100001 ^
b0000000000000000 _
b0000000000000101 `
b1011 a
b1110110101011101 d
b1110110101100000 e
1f
b1110110101100001 h
b1110110101011110 i
1j
b0000000000000000 l
b1111111111111011 m
1n
#620000000000
0!
03
0U
0f
0j
0n
#630000000000
1!
b1110110101011101 (
b1110110101100001 )
b0000000000000000 *
b1111 +
b1110110101011101 /
b1110110101100001 0
b0000000000000000 1
13
b1100 5
b1110110101011101 9
b1110110101100001 :
b0000000000000000 ;
b1110110101011101 <
b1110110101100001 =
b0000000000000000 >
b1110110101011111 ?
b1110110101011111 @
b1111111111111101 A
b0000000000000011 B
1U
b1100 X
b1100 Y
b1110110101011101 Z
b1110110101100001 [
b0000000000000000 \
b1110110101011111 ]
b1110110101011111 ^
b1111111111111101 _
b0000000000000011 `
b1100 a
0c
b1110110101011111 d
b1110110101011101 e
1f
b1110110101011111 h
b1110110101100001 i
1j
b1111111111111101 l
b0000000000000000 m
1n
#640000000000
0!
03
0U
0f
0j
0n
#650000000000
1!
b1110110101011111 (
b1110110101011111 )
b1111111111111101 *
b10000 +
b1110110101011111 /
b1110110101011111 0
b1111111111111101 1
13
b1101 5
b1110110101011111 9
b1110110101011111 :
b1111111111111101 ;
b1110110101011111 <
b1110110101011111 =
b1111111111111101 >
b1110110101011110 ?
b1110110101100000 @
b1111111111111110 A
b0000000000000001 B
1U
b1101 X
b1101 Y
b1110110101011111 Z
b1110110101011111 [
b1111111111111101 \
b1110110101011110 ]
b1110110101100000 ^
b1111111111111110 _
b0000000000000001 `
b1101 a
1c
b1110110101011110 d
b1110110101011111 e
1f
b1110110101100000 h
b1110110101011111 i
1j
b1111111111111110 l
b1111111111111101 m
1n
#660000000000
0!
03
0U
0f
0j
0n
#670000000000
1!
b1110110101011110 (
b1110110101100000 )
b1111111111111110 *
b0 +
b1110110101011110 /
b1110110101100000 0
b1111111111111110 1
13
b1110 5
b1110110101011110 9
b1110110101100000 :
b1111111111111110 ;
b1110110101011110 <
b1110110101100000 =
b1111111111111110 >
b1110110101011101 ?
b1110110101100001 @
b1111111111111110 A
b0000000000000000 B
0C
1U
0V
b1110 X
b1110 Y
b1110110101011110 Z
b1110110101100000 [
b1111111111111110 \
b1110110101011101 ]
b1110110101100001 ^
b1111111111111110 _
b0000000000000000 `
b1110 a
b1110110101011101 d
b1110110101011110 e
1f
b1110110101100001 h
b1110110101100000 i
1j
b1111111111111110 l
b1111111111111110 m
1n
#680000000000
0!
03
0U
0f
0j
0n
