cordic_tb.vcd
$date
  Mon Feb 24 19:00:10 2025
$end
$version
  GHDL v0
$end
$timescale
  1 fs
$end
$scope module standard $end
$upscope $end
$scope module std_logic_1164 $end
$upscope $end
$scope module numeric_std $end
$upscope $end
$scope module math_real $end
$upscope $end
$scope module textio $end
$upscope $end
$scope module utils $end
$upscope $end
$scope module cordic_tb $end
$var reg 1 ! clk $end
$var reg 1 " rst $end
$var reg 1 # req $end
$var reg 1 $ rot0_vec1 $end
$var reg 16 % x_in[15:0] $end
$var reg 16 & y_in[15:0] $end
$var reg 16 ' z_in[15:0] $end
$var reg 16 ( x_out[15:0] $end
$var reg 16 ) y_out[15:0] $end
$var reg 16 * z_out[15:0] $end
$var integer 32 + count $end
$scope module dut_cordic $end
$var reg 16 , x0[15:0] $end
$var reg 16 - y0[15:0] $end
$var reg 16 . z0[15:0] $end
$var reg 16 / xr[15:0] $end
$var reg 16 0 yr[15:0] $end
$var reg 16 1 zr[15:0] $end
$var reg 1 2 busy $end
$var reg 1 3 start $end
$var reg 1 4 clk $end
$var reg 1 5 mode $end
$var integer 32 6 i $end
$var reg 16 7 x_pre[15:0] $end
$var reg 16 8 y_pre[15:0] $end
$var reg 16 9 z_pre[15:0] $end
$var reg 16 : x_in[15:0] $end
$var reg 16 ; y_in[15:0] $end
$var reg 16 < z_in[15:0] $end
$var reg 16 = x_act[15:0] $end
$var reg 16 > y_act[15:0] $end
$var reg 16 ? z_act[15:0] $end
$var reg 16 @ x_next[15:0] $end
$var reg 16 A y_next[15:0] $end
$var reg 16 B z_next[15:0] $end
$var reg 16 C beta[15:0] $end
$var reg 1 D count_en $end
$scope module precordic $end
$var reg 16 E x_in[15:0] $end
$var reg 16 F y_in[15:0] $end
$var reg 16 G z_in[15:0] $end
$var reg 16 H x_out[15:0] $end
$var reg 16 I y_out[15:0] $end
$var reg 16 J z_out[15:0] $end
$var reg 1 K mode $end
$var reg 16 L x_in_2c[15:0] $end
$var reg 16 M y_in_2c[15:0] $end
$var reg 16 N z_in_inv[15:0] $end
$var reg 16 O x_rot[15:0] $end
$var reg 16 P y_rot[15:0] $end
$var reg 16 Q z_rot[15:0] $end
$var reg 16 R x_vec[15:0] $end
$var reg 16 S y_vec[15:0] $end
$var reg 16 T z_vec[15:0] $end
$upscope $end
$scope module counter $end
$var reg 1 U clk $end
$var reg 1 V ena $end
$var reg 1 W rst $end
$var integer 32 X count $end
$var integer 32 Y aux $end
$upscope $end
$scope module cordic_stage $end
$var reg 16 Z x_in[15:0] $end
$var reg 16 [ y_in[15:0] $end
$var reg 16 \ z_in[15:0] $end
$var reg 16 ] x_out[15:0] $end
$var reg 16 ^ y_out[15:0] $end
$var reg 16 _ z_out[15:0] $end
$var reg 16 ` beta[15:0] $end
$var integer 32 a shift $end
$var reg 1 b mode $end
$var reg 1 c di $end
$upscope $end
$scope module reg_x $end
$var reg 16 d di[15:0] $end
$var reg 16 e qo[15:0] $end
$var reg 1 f clk $end
$var reg 1 g rst $end
$var reg 1 h ena $end
$upscope $end
$scope module reg_y $end
$var reg 16 i di[15:0] $end
$var reg 16 j qo[15:0] $end
$var reg 1 k clk $end
$var reg 1 l rst $end
$var reg 1 m ena $end
$upscope $end
$scope module reg_z $end
$var reg 16 n di[15:0] $end
$var reg 16 o qo[15:0] $end
$var reg 1 p clk $end
$var reg 1 q rst $end
$var reg 1 r ena $end
$upscope $end
$upscope $end
$upscope $end
$enddefinitions $end
#0
0!
0"
0#
0$
bUUUUUUUUUUUUUUUU %
bUUUUUUUUUUUUUUUU &
bUUUUUUUUUUUUUUUU '
bUUUUUUUUUUUUUUUU (
bUUUUUUUUUUUUUUUU )
bUUUUUUUUUUUUUUUU *
b0 +
bUUUUUUUUUUUUUUUU ,
bUUUUUUUUUUUUUUUU -
bUUUUUUUUUUUUUUUU .
bUUUUUUUUUUUUUUUU /
bUUUUUUUUUUUUUUUU 0
bUUUUUUUUUUUUUUUU 1
U2
03
04
05
b0 6
bUUUUUUUUUUUUUUUU 7
bUUUUUUUUUUUUUUUU 8
bUUUUUUUUUUUUUUUU 9
bUUUUUUUUUUUUUUUU :
bUUUUUUUUUUUUUUUU ;
bUUUUUUUUUUUUUUUU <
bUUUUUUUUUUUUUUUU =
bUUUUUUUUUUUUUUUU >
bUUUUUUUUUUUUUUUU ?
bXXXXXXXXXXXXXXXX @
bXXXXXXXXXXXXXXXX A
bXXXXXXXXXXXXXXXX B
b0000000000000000 C
UD
bUUUUUUUUUUUUUUUU E
bUUUUUUUUUUUUUUUU F
bUUUUUUUUUUUUUUUU G
bUUUUUUUUUUUUUUUU H
bUUUUUUUUUUUUUUUU I
bUUUUUUUUUUUUUUUU J
0K
bXXXXXXXXXXXXXXXX L
bXXXXXXXXXXXXXXXX M
bUUUUUUUUUUUUUUUU N
bUUUUUUUUUUUUUUUU O
bUUUUUUUUUUUUUUUU P
bUUUUUUUUUUUUUUUU Q
bUUUUUUUUUUUUUUUU R
bUUUUUUUUUUUUUUUU S
bUUUUUUUUUUUUUUUU T
0U
UV
0W
b0 X
b0 Y
bUUUUUUUUUUUUUUUU Z
bUUUUUUUUUUUUUUUU [
bUUUUUUUUUUUUUUUU \
bXXXXXXXXXXXXXXXX ]
bXXXXXXXXXXXXXXXX ^
bXXXXXXXXXXXXXXXX _
b0000000000000000 `
b0 a
0b
Uc
bXXXXXXXXXXXXXXXX d
bUUUUUUUUUUUUUUUU e
0f
0g
Uh
bXXXXXXXXXXXXXXXX i
bUUUUUUUUUUUUUUUU j
0k
0l
Um
bXXXXXXXXXXXXXXXX n
bUUUUUUUUUUUUUUUU o
0p
0q
Ur
#10000000000
1!
1"
b0000000000000000 %
b0100000000000000 &
b0000000000000000 '
b0000000000000000 (
b0000000000000000 )
b0000000000000000 *
b1 +
b0000000000000000 ,
b0100000000000000 -
b0000000000000000 .
b0000000000000000 /
b0000000000000000 0
b0000000000000000 1
12
13
14
b0000000000000000 7
b0100000000000000 8
b0000000000000000 9
b0010000000000000 C
1D
b0000000000000000 E
b0100000000000000 F
b0000000000000000 G
b0000000000000000 H
b0100000000000000 I
b0000000000000000 J
b0000000000000000 L
b1100000000000000 M
b1000000000000000 N
b0000000000000000 O
b0100000000000000 P
b0000000000000000 Q
b0000000000000000 R
b0100000000000000 S
b0000000000000000 T
1U
1V
1W
b0010000000000000 `
1f
1g
1h
1k
1l
1m
1p
1q
1r
#20000000000
0!
04
b0000000000000000 :
b0100000000000000 ;
b0000000000000000 <
b1100000000000000 @
b0100000000000000 A
b1110000000000000 B
0U
b0000000000000000 Z
b0100000000000000 [
b0000000000000000 \
b1100000000000000 ]
b0100000000000000 ^
b1110000000000000 _
0c
b1100000000000000 d
0f
b0100000000000000 i
0k
b1110000000000000 n
0p
#30000000000
1!
0"
b10 +
03
14
b0000000000000000 =
b0000000000000000 >
b0000000000000000 ?
1U
0W
b0000000000000000 e
1f
0g
b0000000000000000 j
1k
0l
b0000000000000000 o
1p
0q
#40000000000
0!
04
0U
0f
0k
0p
#50000000000
1!
b11 +
14
b1 6
b1100000000000000 :
b1110000000000000 <
b1100000000000000 =
b0100000000000000 >
b1110000000000000 ?
b1110000000000000 @
b0110000000000000 A
b1111001011100100 B
b0001001011100100 C
1U
b1 X
b1 Y
b1100000000000000 Z
b1110000000000000 \
b1110000000000000 ]
b0110000000000000 ^
b1111001011100100 _
b0001001011100100 `
b1 a
1c
b1110000000000000 d
b1100000000000000 e
1f
b0110000000000000 i
b0100000000000000 j
1k
b1111001011100100 n
b1110000000000000 o
1p
#60000000000
0!
04
0U
0f
0k
0p
#70000000000
1!
b100 +
14
b10 6
b1110000000000000 :
b0110000000000000 ;
b1111001011100100 <
b1110000000000000 =
b0110000000000000 >
b1111001011100100 ?
b1111100000000000 @
b0110100000000000 A
b1111110011011111 B
b0000100111111011 C
1U
b10 X
b10 Y
b1110000000000000 Z
b0110000000000000 [
b1111001011100100 \
b1111100000000000 ]
b0110100000000000 ^
b1111110011011111 _
b0000100111111011 `
b10 a
b1111100000000000 d
b1110000000000000 e
1f
b0110100000000000 i
b0110000000000000 j
1k
b1111110011011111 n
b1111001011100100 o
1p
#80000000000
0!
04
0U
0f
0k
0p
#90000000000
1!
b101 +
14
b11 6
b1111100000000000 :
b0110100000000000 ;
b1111110011011111 <
b1111100000000000 =
b0110100000000000 >
b1111110011011111 ?
b0000010100000000 @
b0110100100000000 A
b0000000111110000 B
b0000010100010001 C
1U
b11 X
b11 Y
b1111100000000000 Z
b0110100000000000 [
b1111110011011111 \
b0000010100000000 ]
b0110100100000000 ^
b0000000111110000 _
b0000010100010001 `
b11 a
b0000010100000000 d
b1111100000000000 e
1f
b0110100100000000 i
b0110100000000000 j
1k
b0000000111110000 n
b1111110011011111 o
1p
#100000000000
0!
04
0U
0f
0k
0p
#110000000000
1!
b110 +
14
b100 6
b0000010100000000 :
b0110100100000000 ;
b0000000111110000 <
b0000010100000000 =
b0110100100000000 >
b0000000111110000 ?
b1111111001110000 @
b0110100101010000 A
b1111111101100101 B
b0000001010001011 C
1U
b100 X
b100 Y
b0000010100000000 Z
b0110100100000000 [
b0000000111110000 \
b1111111001110000 ]
b0110100101010000 ^
b1111111101100101 _
b0000001010001011 `
b100 a
0c
b1111111001110000 d
b0000010100000000 e
1f
b0110100101010000 i
b0110100100000000 j
1k
b1111111101100101 n
b0000000111110000 o
1p
#120000000000
0!
04
0U
0f
0k
0p
#130000000000
1!
b111 +
14
b101 6
b1111111001110000 :
b0110100101010000 ;
b1111111101100101 <
b1111111001110000 =
b0110100101010000 >
b1111111101100101 ?
b0000000110111010 @
b0110100101011101 A
b0000000010101011 B
b0000000101000110 C
1U
b101 X
b101 Y
b1111111001110000 Z
b0110100101010000 [
b1111111101100101 \
b0000000110111010 ]
b0110100101011101 ^
b0000000010101011 _
b0000000101000110 `
b101 a
1c
b0000000110111010 d
b1111111001110000 e
1f
b0110100101011101 i
b0110100101010000 j
1k
b0000000010101011 n
b1111111101100101 o
1p
#140000000000
0!
04
0U
0f
0k
0p
#150000000000
1!
b1000 +
14
b110 6
b0000000110111010 :
b0110100101011101 ;
b0000000010101011 <
b0000000110111010 =
b0110100101011101 >
b0000000010101011 ?
b0000000000010101 @
b0110100101100011 A
b0000000000001000 B
b0000000010100011 C
1U
b110 X
b110 Y
b0000000110111010 Z
b0110100101011101 [
b0000000010101011 \
b0000000000010101 ]
b0110100101100011 ^
b0000000000001000 _
b0000000010100011 `
b110 a
0c
b0000000000010101 d
b0000000110111010 e
1f
b0110100101100011 i
b0110100101011101 j
1k
b0000000000001000 n
b0000000010101011 o
1p
#160000000000
0!
04
0U
0f
0k
0p
#170000000000
1!
b1001 +
14
b111 6
b0000000000010101 :
b0110100101100011 ;
b0000000000001000 <
b0000000000010101 =
b0110100101100011 >
b0000000000001000 ?
b1111111101000011 @
b0110100101100011 A
b1111111110110111 B
b0000000001010001 C
1U
b111 X
b111 Y
b0000000000010101 Z
b0110100101100011 [
b0000000000001000 \
b1111111101000011 ]
b0110100101100011 ^
b1111111110110111 _
b0000000001010001 `
b111 a
b1111111101000011 d
b0000000000010101 e
1f
b0110100101100011 i
b0110100101100011 j
1k
b1111111110110111 n
b0000000000001000 o
1p
#180000000000
0!
04
0U
0f
0k
0p
#190000000000
1!
b1010 +
14
b1000 6
b1111111101000011 :
b1111111110110111 <
b1111111101000011 =
b1111111110110111 ?
b1111111110101100 @
b0110100101100100 A
b1111111111100000 B
b0000000000101001 C
1U
b1000 X
b1000 Y
b1111111101000011 Z
b1111111110110111 \
b1111111110101100 ]
b0110100101100100 ^
b1111111111100000 _
b0000000000101001 `
b1000 a
1c
b1111111110101100 d
b1111111101000011 e
1f
b0110100101100100 i
1k
b1111111111100000 n
b1111111110110111 o
1p
#200000000000
0!
04
0U
0f
0k
0p
#210000000000
1!
b1011 +
14
b1001 6
b1111111110101100 :
b0110100101100100 ;
b1111111111100000 <
b1111111110101100 =
b0110100101100100 >
b1111111111100000 ?
b1111111111100000 @
b0110100101100101 A
b1111111111110100 B
b0000000000010100 C
1U
b1001 X
b1001 Y
b1111111110101100 Z
b0110100101100100 [
b1111111111100000 \
b1111111111100000 ]
b0110100101100101 ^
b1111111111110100 _
b0000000000010100 `
b1001 a
b1111111111100000 d
b1111111110101100 e
1f
b0110100101100101 i
b0110100101100100 j
1k
b1111111111110100 n
b1111111111100000 o
1p
#220000000000
0!
04
0U
0f
0k
0p
#230000000000
1!
b1100 +
14
b1010 6
b1111111111100000 :
b0110100101100101 ;
b1111111111110100 <
b1111111111100000 =
b0110100101100101 >
b1111111111110100 ?
b1111111111111010 @
b0110100101100110 A
b1111111111111110 B
b0000000000001010 C
1U
b1010 X
b1010 Y
b1111111111100000 Z
b0110100101100101 [
b1111111111110100 \
b1111111111111010 ]
b0110100101100110 ^
b1111111111111110 _
b0000000000001010 `
b1010 a
b1111111111111010 d
b1111111111100000 e
1f
b0110100101100110 i
b0110100101100101 j
1k
b1111111111111110 n
b1111111111110100 o
1p
#240000000000
0!
04
0U
0f
0k
0p
#250000000000
1!
b1101 +
14
b1011 6
b1111111111111010 :
b0110100101100110 ;
b1111111111111110 <
b1111111111111010 =
b0110100101100110 >
b1111111111111110 ?
b0000000000000111 @
b0110100101100111 A
b0000000000000011 B
b0000000000000101 C
1U
b1011 X
b1011 Y
b1111111111111010 Z
b0110100101100110 [
b1111111111111110 \
b0000000000000111 ]
b0110100101100111 ^
b0000000000000011 _
b0000000000000101 `
b1011 a
b0000000000000111 d
b1111111111111010 e
1f
b0110100101100111 i
b0110100101100110 j
1k
b0000000000000011 n
b1111111111111110 o
1p
#260000000000
0!
04
0U
0f
0k
0p
#270000000000
1!
b1110 +
14
b1100 6
b0000000000000111 :
b0110100101100111 ;
b0000000000000011 <
b0000000000000111 =
b0110100101100111 >
b0000000000000011 ?
b0000000000000001 @
b0000000000000000 B
b0000000000000011 C
1U
b1100 X
b1100 Y
b0000000000000111 Z
b0110100101100111 [
b0000000000000011 \
b0000000000000001 ]
b0000000000000000 _
b0000000000000011 `
b1100 a
0c
b0000000000000001 d
b0000000000000111 e
1f
b0110100101100111 j
1k
b0000000000000000 n
b0000000000000011 o
1p
#280000000000
0!
04
0U
0f
0k
0p
#290000000000
1!
b1111 +
14
b1101 6
b0000000000000001 :
b0000000000000000 <
b0000000000000001 =
b0000000000000000 ?
b1111111111111110 @
b1111111111111111 B
b0000000000000001 C
1U
b1101 X
b1101 Y
b0000000000000001 Z
b0000000000000000 \
b1111111111111110 ]
b1111111111111111 _
b0000000000000001 `
b1101 a
b1111111111111110 d
b0000000000000001 e
1f
1k
b1111111111111111 n
b0000000000000000 o
1p
#300000000000
0!
04
0U
0f
0k
0p
#310000000000
1!
b1111111111111111 (
b0011111111111111 )
b1111111111111111 *
b10000 +
b1111111111111111 /
b0011111111111111 0
b1111111111111111 1
02
14
b1110 6
b1111111111111110 :
b1111111111111111 <
b1111111111111110 =
b1111111111111111 ?
b1111111111111111 @
b0110100101101000 A
b1111111111111111 B
b0000000000000000 C
0D
1U
0V
b1110 X
b1110 Y
b1111111111111110 Z
b1111111111111111 \
b1111111111111111 ]
b0110100101101000 ^
b1111111111111111 _
b0000000000000000 `
b1110 a
1c
b1111111111111111 d
b1111111111111110 e
1f
0h
b0110100101101000 i
1k
0m
b1111111111111111 n
b1111111111111111 o
1p
0r
#320000000000
0!
04
0U
0f
0k
0p
#330000000000
1!
b0 +
14
1U
1f
1k
1p
#340000000000
0!
04
0U
0f
0k
0p
#350000000000
1!
1"
b0011111111111111 &
b0101111111111111 '
b1 +
b0011111111111111 -
b0101111111111111 .
13
14
b0 6
b1100000000000001 8
b1101111111111111 9
b0000000000000000 :
b0100000000000000 ;
b0000000000000000 <
b1100000000000000 @
b0100000000000000 A
b0000000000000000 B
b0011111111111111 F
b0101111111111111 G
b1100000000000001 I
b1101111111111111 J
b1100000000000001 M
b1101111111111111 N
b1100000000000001 P
b1101111111111111 Q
b0011111111111111 S
b0101111111111111 T
1U
1W
b0 X
b0000000000000000 Z
b0100000000000000 [
b0000000000000000 \
b1100000000000000 ]
b0100000000000000 ^
b0000000000000000 _
b0 a
0c
b1100000000000000 d
1f
1g
b0100000000000000 i
1k
1l
b0000000000000000 n
1p
1q
#360000000000
0!
04
b1100000000000001 ;
b1101111111111111 <
b1100000000000001 @
b1100000000000001 A
b1101111111111111 B
0U
b1100000000000001 [
b1101111111111111 \
b1100000000000001 ]
b1100000000000001 ^
b1101111111111111 _
1c
b1100000000000001 d
0f
b1100000000000001 i
0k
b1101111111111111 n
0p
#370000000000
1!
0"
b10 +
03
14
b0000000000000000 =
b0000000000000000 >
b0000000000000000 ?
1U
0W
b0 Y
b0000000000000000 e
1f
0g
b0000000000000000 j
1k
0l
b0000000000000000 o
1p
0q
#380000000000
0!
04
0U
0f
0k
0p
#390000000000
1!
b0000000000000000 (
b0000000000000000 )
b0000000000000000 *
b11 +
b0000000000000000 /
b0000000000000000 0
b0000000000000000 1
12
14
b1111111111111111 B
b0010000000000000 C
1D
1U
1V
b1111111111111111 _
b0010000000000000 `
1f
1h
1k
1m
b1111111111111111 n
1p
1r
#400000000000
0!
04
0U
0f
0k
0p
#410000000000
1!
b100 +
14
b1 6
b1100000000000001 :
b1111111111111111 <
b1100000000000001 =
b1100000000000001 >
b1111111111111111 ?
b1010000000000001 @
b1110000000000001 A
b0001001011100011 B
b0001001011100100 C
1U
b1 X
b1 Y
b1100000000000001 Z
b1111111111111111 \
b1010000000000001 ]
b1110000000000001 ^
b0001001011100011 _
b0001001011100100 `
b1 a
b1010000000000001 d
b1100000000000001 e
1f
b1110000000000001 i
b1100000000000001 j
1k
b0001001011100011 n
b1111111111111111 o
1p
#420000000000
0!
04
0U
0f
0k
0p
#430000000000
1!
b101 +
14
b10 6
b1010000000000001 :
b1110000000000001 ;
b0001001011100011 <
b1010000000000001 =
b1110000000000001 >
b0001001011100011 ?
b1010100000000001 @
b1100100000000001 A
b0000100011101000 B
b0000100111111011 C
1U
b10 X
b10 Y
b1010000000000001 Z
b1110000000000001 [
b0001001011100011 \
b1010100000000001 ]
b1100100000000001 ^
b0000100011101000 _
b0000100111111011 `
b10 a
0c
b1010100000000001 d
b1010000000000001 e
1f
b1100100000000001 i
b1110000000000001 j
1k
b0000100011101000 n
b0001001011100011 o
1p
#440000000000
0!
04
0U
0f
0k
0p
#450000000000
1!
b110 +
14
b11 6
b1010100000000001 :
b1100100000000001 ;
b0000100011101000 <
b1010100000000001 =
b1100100000000001 >
b0000100011101000 ?
b1010111100000001 @
b1011110100000001 A
b0000001111010111 B
b0000010100010001 C
1U
b11 X
b11 Y
b1010100000000001 Z
b1100100000000001 [
b0000100011101000 \
b1010111100000001 ]
b1011110100000001 ^
b0000001111010111 _
b0000010100010001 `
b11 a
b1010111100000001 d
b1010100000000001 e
1f
b1011110100000001 i
b1100100000000001 j
1k
b0000001111010111 n
b0000100011101000 o
1p
#460000000000
0!
04
0U
0f
0k
0p
#470000000000
1!
b111 +
14
b100 6
b1010111100000001 :
b1011110100000001 ;
b0000001111010111 <
b1010111100000001 =
b1011110100000001 >
b0000001111010111 ?
b1011001100110001 @
b1011011111110001 A
b0000000101001100 B
b0000001010001011 C
1U
b100 X
b100 Y
b1010111100000001 Z
b1011110100000001 [
b0000001111010111 \
b1011001100110001 ]
b1011011111110001 ^
b0000000101001100 _
b0000001010001011 `
b100 a
b1011001100110001 d
b1010111100000001 e
1f
b1011011111110001 i
b1011110100000001 j
1k
b0000000101001100 n
b0000001111010111 o
1p
#480000000000
0!
04
0U
0f
0k
0p
#490000000000
1!
b1000 +
14
b101 6
b1011001100110001 :
b1011011111110001 ;
b0000000101001100 <
b1011001100110001 =
b1011011111110001 >
b0000000101001100 ?
b1011010101110010 @
b1011010110001010 A
b0000000000000110 B
b0000000101000110 C
1U
b101 X
b101 Y
b1011001100110001 Z
b1011011111110001 [
b0000000101001100 \
b1011010101110010 ]
b1011010110001010 ^
b0000000000000110 _
b0000000101000110 `
b101 a
b1011010101110010 d
b1011001100110001 e
1f
b1011010110001010 i
b1011011111110001 j
1k
b0000000000000110 n
b0000000101001100 o
1p
#500000000000
0!
04
0U
0f
0k
0p
#510000000000
1!
b1001 +
14
b110 6
b1011010101110010 :
b1011010110001010 ;
b0000000000000110 <
b1011010101110010 =
b1011010110001010 >
b0000000000000110 ?
b1011011010011100 @
b1011010001011111 A
b1111111101100011 B
b0000000010100011 C
1U
b110 X
b110 Y
b1011010101110010 Z
b1011010110001010 [
b0000000000000110 \
b1011011010011100 ]
b1011010001011111 ^
b1111111101100011 _
b0000000010100011 `
b110 a
b1011011010011100 d
b1011010101110010 e
1f
b1011010001011111 i
b1011010110001010 j
1k
b1111111101100011 n
b0000000000000110 o
1p
#520000000000
0!
04
0U
0f
0k
0p
#530000000000
1!
b1010 +
14
b111 6
b1011011010011100 :
b1011010001011111 ;
b1111111101100011 <
b1011011010011100 =
b1011010001011111 >
b1111111101100011 ?
b1011011000000100 @
b1011010011110010 A
b1111111110110100 B
b0000000001010001 C
1U
b111 X
b111 Y
b1011011010011100 Z
b1011010001011111 [
b1111111101100011 \
b1011011000000100 ]
b1011010011110010 ^
b1111111110110100 _
b0000000001010001 `
b111 a
1c
b1011011000000100 d
b1011011010011100 e
1f
b1011010011110010 i
b1011010001011111 j
1k
b1111111110110100 n
b1111111101100011 o
1p
#540000000000
0!
04
0U
0f
0k
0p
#550000000000
1!
b1011 +
14
b1000 6
b1011011000000100 :
b1011010011110010 ;
b1111111110110100 <
b1011011000000100 =
b1011010011110010 >
b1111111110110100 ?
b1011010110111000 @
b1011010100111100 A
b1111111111011101 B
b0000000000101001 C
1U
b1000 X
b1000 Y
b1011011000000100 Z
b1011010011110010 [
b1111111110110100 \
b1011010110111000 ]
b1011010100111100 ^
b1111111111011101 _
b0000000000101001 `
b1000 a
b1011010110111000 d
b1011011000000100 e
1f
b1011010100111100 i
b1011010011110010 j
1k
b1111111111011101 n
b1111111110110100 o
1p
#560000000000
0!
04
0U
0f
0k
0p
#570000000000
1!
b1100 +
14
b1001 6
b1011010110111000 :
b1011010100111100 ;
b1111111111011101 <
b1011010110111000 =
b1011010100111100 >
b1111111111011101 ?
b1011010110010010 @
b1011010101100010 A
b1111111111110001 B
b0000000000010100 C
1U
b1001 X
b1001 Y
b1011010110111000 Z
b1011010100111100 [
b1111111111011101 \
b1011010110010010 ]
b1011010101100010 ^
b1111111111110001 _
b0000000000010100 `
b1001 a
b1011010110010010 d
b1011010110111000 e
1f
b1011010101100010 i
b1011010100111100 j
1k
b1111111111110001 n
b1111111111011101 o
1p
#580000000000
0!
04
0U
0f
0k
0p
#590000000000
1!
b1101 +
14
b1010 6
b1011010110010010 :
b1011010101100010 ;
b1111111111110001 <
b1011010110010010 =
b1011010101100010 >
b1111111111110001 ?
b1011010101111111 @
b1011010101110101 A
b1111111111111011 B
b0000000000001010 C
1U
b1010 X
b1010 Y
b1011010110010010 Z
b1011010101100010 [
b1111111111110001 \
b1011010101111111 ]
b1011010101110101 ^
b1111111111111011 _
b0000000000001010 `
b1010 a
b1011010101111111 d
b1011010110010010 e
1f
b1011010101110101 i
b1011010101100010 j
1k
b1111111111111011 n
b1111111111110001 o
1p
#600000000000
0!
04
0U
0f
0k
0p
#610000000000
1!
b1110 +
14
b1011 6
b1011010101111111 :
b1011010101110101 ;
b1111111111111011 <
b1011010101111111 =
b1011010101110101 >
b1111111111111011 ?
b1011010101110101 @
b1011010101111111 A
b0000000000000000 B
b0000000000000101 C
1U
b1011 X
b1011 Y
b1011010101111111 Z
b1011010101110101 [
b1111111111111011 \
b1011010101110101 ]
b1011010101111111 ^
b0000000000000000 _
b0000000000000101 `
b1011 a
b1011010101110101 d
b1011010101111111 e
1f
b1011010101111111 i
b1011010101110101 j
1k
b0000000000000000 n
b1111111111111011 o
1p
#620000000000
0!
04
0U
0f
0k
0p
#630000000000
1!
b1111 +
14
b1100 6
b1011010101110101 :
b1011010101111111 ;
b0000000000000000 <
b1011010101110101 =
b1011010101111111 >
b0000000000000000 ?
b1011010101111010 @
b1011010101111010 A
b1111111111111101 B
b0000000000000011 C
1U
b1100 X
b1100 Y
b1011010101110101 Z
b1011010101111111 [
b0000000000000000 \
b1011010101111010 ]
b1011010101111010 ^
b1111111111111101 _
b0000000000000011 `
b1100 a
0c
b1011010101111010 d
b1011010101110101 e
1f
b1011010101111010 i
b1011010101111111 j
1k
b1111111111111101 n
b0000000000000000 o
1p
#640000000000
0!
04
0U
0f
0k
0p
#650000000000
1!
b10000 +
14
b1101 6
b1011010101111010 :
b1011010101111010 ;
b1111111111111101 <
b1011010101111010 =
b1011010101111010 >
b1111111111111101 ?
b1011010101110111 @
b1011010101111101 A
b1111111111111110 B
b0000000000000001 C
1U
b1101 X
b1101 Y
b1011010101111010 Z
b1011010101111010 [
b1111111111111101 \
b1011010101110111 ]
b1011010101111101 ^
b1111111111111110 _
b0000000000000001 `
b1101 a
1c
b1011010101110111 d
b1011010101111010 e
1f
b1011010101111101 i
b1011010101111010 j
1k
b1111111111111110 n
b1111111111111101 o
1p
#660000000000
0!
04
0U
0f
0k
0p
#670000000000
1!
b1101001010111111 (
b1101001011000011 )
b1111111111111110 *
b0 +
b1101001010111111 /
b1101001011000011 0
b1111111111111110 1
02
14
b1110 6
b1011010101110111 :
b1011010101111101 ;
b1111111111111110 <
b1011010101110111 =
b1011010101111101 >
b1111111111111110 ?
b1011010101110101 @
b1011010101111111 A
b1111111111111110 B
b0000000000000000 C
0D
1U
0V
b1110 X
b1110 Y
b1011010101110111 Z
b1011010101111101 [
b1111111111111110 \
b1011010101110101 ]
b1011010101111111 ^
b1111111111111110 _
b0000000000000000 `
b1110 a
b1011010101110101 d
b1011010101110111 e
1f
0h
b1011010101111111 i
b1011010101111101 j
1k
0m
b1111111111111110 n
b1111111111111110 o
1p
0r
#680000000000
0!
04
0U
0f
0k
0p
#690000000000
1!
1"
b0011111111111111 %
b1000111000111000 '
b1 +
b0011111111111111 ,
b1000111000111000 .
13
14
b0 6
b1100000000000001 7
b0000111000111000 9
b0000000000000000 :
b1100000000000001 ;
b1101111111111111 <
b1100000000000001 @
b1100000000000001 A
b1101111111111111 B
b0011111111111111 E
b1000111000111000 G
b1100000000000001 H
b0000111000111000 J
b1100000000000001 L
b0000111000111000 N
b1100000000000001 O
b0000111000111000 Q
b0011111111111111 R
b1000111000111000 T
1U
1W
b0 X
b0000000000000000 Z
b1100000000000001 [
b1101111111111111 \
b1100000000000001 ]
b1100000000000001 ^
b1101111111111111 _
b0 a
b1100000000000001 d
1f
1g
b1100000000000001 i
1k
1l
b1101111111111111 n
1p
1q
#700000000000
0!
04
b1100000000000001 :
b0000111000111000 <
b0000000000000000 @
b1000000000000010 A
b0000111000111000 B
0U
b1100000000000001 Z
b0000111000111000 \
b0000000000000000 ]
b1000000000000010 ^
b0000111000111000 _
0c
b0000000000000000 d
0f
b1000000000000010 i
0k
b0000111000111000 n
0p
#710000000000
1!
0"
b10 +
03
14
b0000000000000000 =
b0000000000000000 >
b0000000000000000 ?
1U
0W
b0 Y
b0000000000000000 e
1f
0g
b0000000000000000 j
1k
0l
b0000000000000000 o
1p
0q
#720000000000
0!
04
0U
0f
0k
0p
#730000000000
1!
b0000000000000000 (
b0000000000000000 )
b0000000000000000 *
b11 +
b0000000000000000 /
b0000000000000000 0
b0000000000000000 1
12
14
b1110111000111000 B
b0010000000000000 C
1D
1U
1V
b1110111000111000 _
b0010000000000000 `
1f
1h
1k
1m
b1110111000111000 n
1p
1r
#740000000000
0!
04
0U
0f
0k
0p
#750000000000
1!
b100 +
14
b1 6
b0000000000000000 :
b1000000000000010 ;
b1110111000111000 <
b1000000000000010 >
b1110111000111000 ?
b1100000000000001 @
b1000000000000010 A
b0000000100011100 B
b0001001011100100 C
1U
b1 X
b1 Y
b0000000000000000 Z
b1000000000000010 [
b1110111000111000 \
b1100000000000001 ]
b1000000000000010 ^
b0000000100011100 _
b0001001011100100 `
b1 a
1c
b1100000000000001 d
1f
b1000000000000010 i
b1000000000000010 j
1k
b0000000100011100 n
b1110111000111000 o
1p
#760000000000
0!
04
0U
0f
0k
0p
#770000000000
1!
b101 +
14
b10 6
b1100000000000001 :
b0000000100011100 <
b1100000000000001 =
b0000000100011100 ?
b1110000000000001 @
b0111000000000010 A
b1111011100100001 B
b0000100111111011 C
1U
b10 X
b10 Y
b1100000000000001 Z
b0000000100011100 \
b1110000000000001 ]
b0111000000000010 ^
b1111011100100001 _
b0000100111111011 `
b10 a
0c
b1110000000000001 d
b1100000000000001 e
1f
b0111000000000010 i
1k
b1111011100100001 n
b0000000100011100 o
1p
#780000000000
0!
04
0U
0f
0k
0p
#790000000000
1!
b110 +
14
b11 6
b1110000000000001 :
b0111000000000010 ;
b1111011100100001 <
b1110000000000001 =
b0111000000000010 >
b1111011100100001 ?
b1110111000000001 @
b0111010000000010 A
b1111110000110010 B
b0000010100010001 C
1U
b11 X
b11 Y
b1110000000000001 Z
b0111000000000010 [
b1111011100100001 \
b1110111000000001 ]
b0111010000000010 ^
b1111110000110010 _
b0000010100010001 `
b11 a
1c
b1110111000000001 d
b1110000000000001 e
1f
b0111010000000010 i
b0111000000000010 j
1k
b1111110000110010 n
b1111011100100001 o
1p
#800000000000
0!
04
0U
0f
0k
0p
