cordic_tb.vcd
$date
  Thu Jan 16 17:45:05 2025
$end
$version
  GHDL v0
$end
$timescale
  1 fs
$end
$scope module standard $end
$upscope $end
$scope module std_logic_1164 $end
$upscope $end
$scope module numeric_std $end
$upscope $end
$scope module math_real $end
$upscope $end
$scope module textio $end
$upscope $end
$scope module utils $end
$upscope $end
$scope module cordic_tb $end
$var reg 1 ! clk $end
$var reg 1 " rst $end
$var reg 1 # req $end
$var reg 1 $ rot0_vec1 $end
$var reg 18 % x_in[17:0] $end
$var reg 18 & y_in[17:0] $end
$var reg 18 ' z_in[17:0] $end
$var reg 18 ( x_out[17:0] $end
$var reg 18 ) y_out[17:0] $end
$var reg 18 * z_out[17:0] $end
$var integer 32 + count $end
$scope module dut_cordic $end
$var reg 18 , x0[17:0] $end
$var reg 18 - y0[17:0] $end
$var reg 18 . z0[17:0] $end
$var reg 18 / xr[17:0] $end
$var reg 18 0 yr[17:0] $end
$var reg 18 1 zr[17:0] $end
$var reg 1 2 start $end
$var reg 1 3 clk $end
$var reg 1 4 mode $end
$var integer 32 5 i $end
$var reg 18 6 x_pre[17:0] $end
$var reg 18 7 y_pre[17:0] $end
$var reg 18 8 z_pre[17:0] $end
$var reg 18 9 x_in[17:0] $end
$var reg 18 : y_in[17:0] $end
$var reg 18 ; z_in[17:0] $end
$var reg 18 < x_act[17:0] $end
$var reg 18 = y_act[17:0] $end
$var reg 18 > z_act[17:0] $end
$var reg 18 ? x_next[17:0] $end
$var reg 18 @ y_next[17:0] $end
$var reg 18 A z_next[17:0] $end
$var reg 18 B beta[17:0] $end
$var reg 1 C count_en $end
$var integer 32 D gain $end
$scope module precordic $end
$var reg 18 E x_in[17:0] $end
$var reg 18 F y_in[17:0] $end
$var reg 18 G z_in[17:0] $end
$var reg 18 H x_out[17:0] $end
$var reg 18 I y_out[17:0] $end
$var reg 18 J z_out[17:0] $end
$var reg 1 K mode $end
$var reg 18 L x_in_2c[17:0] $end
$var reg 18 M y_in_2c[17:0] $end
$var reg 18 N z_in_inv[17:0] $end
$var reg 18 O x_rot[17:0] $end
$var reg 18 P y_rot[17:0] $end
$var reg 18 Q z_rot[17:0] $end
$var reg 18 R x_vec[17:0] $end
$var reg 18 S y_vec[17:0] $end
$var reg 18 T z_vec[17:0] $end
$upscope $end
$scope module counter $end
$var reg 1 U clk $end
$var reg 1 V ena $end
$var reg 1 W rst $end
$var integer 32 X count $end
$var integer 32 Y aux $end
$upscope $end
$scope module cordic_stage $end
$var reg 18 Z x_in[17:0] $end
$var reg 18 [ y_in[17:0] $end
$var reg 18 \ z_in[17:0] $end
$var reg 18 ] x_out[17:0] $end
$var reg 18 ^ y_out[17:0] $end
$var reg 18 _ z_out[17:0] $end
$var reg 18 ` beta[17:0] $end
$var integer 32 a shift $end
$var reg 1 b mode $end
$var reg 1 c di $end
$upscope $end
$scope module reg_x $end
$var reg 18 d di[17:0] $end
$var reg 18 e qo[17:0] $end
$var reg 1 f clk $end
$var reg 1 g rst $end
$upscope $end
$scope module reg_y $end
$var reg 18 h di[17:0] $end
$var reg 18 i qo[17:0] $end
$var reg 1 j clk $end
$var reg 1 k rst $end
$upscope $end
$scope module reg_z $end
$var reg 18 l di[17:0] $end
$var reg 18 m qo[17:0] $end
$var reg 1 n clk $end
$var reg 1 o rst $end
$upscope $end
$upscope $end
$upscope $end
$enddefinitions $end
#0
0!
0"
0#
0$
bUUUUUUUUUUUUUUUUUU %
bUUUUUUUUUUUUUUUUUU &
bUUUUUUUUUUUUUUUUUU '
bUUUUUUUUUUUUUUUUUU (
bUUUUUUUUUUUUUUUUUU )
bUUUUUUUUUUUUUUUUUU *
b0 +
bUUUUUUUUUUUUUUUUUU ,
bUUUUUUUUUUUUUUUUUU -
bUUUUUUUUUUUUUUUUUU .
bUUUUUUUUUUUUUUUUUU /
bUUUUUUUUUUUUUUUUUU 0
bUUUUUUUUUUUUUUUUUU 1
02
03
04
b0 5
bUUUUUUUUUUUUUUUUUU 6
bUUUUUUUUUUUUUUUUUU 7
bUUUUUUUUUUUUUUUUUU 8
bUUUUUUUUUUUUUUUUUU 9
bUUUUUUUUUUUUUUUUUU :
bUUUUUUUUUUUUUUUUUU ;
bUUUUUUUUUUUUUUUUUU <
bUUUUUUUUUUUUUUUUUU =
bUUUUUUUUUUUUUUUUUU >
bXXXXXXXXXXXXXXXXXX ?
bXXXXXXXXXXXXXXXXXX @
bXXXXXXXXXXXXXXXXXX A
b000000000000000000 B
UC
b10000000000000000000000000000000 D
bUUUUUUUUUUUUUUUUUU E
bUUUUUUUUUUUUUUUUUU F
bUUUUUUUUUUUUUUUUUU G
bUUUUUUUUUUUUUUUUUU H
bUUUUUUUUUUUUUUUUUU I
bUUUUUUUUUUUUUUUUUU J
0K
bXXXXXXXXXXXXXXXXXX L
bXXXXXXXXXXXXXXXXXX M
bUUUUUUUUUUUUUUUUUU N
bUUUUUUUUUUUUUUUUUU O
bUUUUUUUUUUUUUUUUUU P
bUUUUUUUUUUUUUUUUUU Q
bUUUUUUUUUUUUUUUUUU R
bUUUUUUUUUUUUUUUUUU S
bUUUUUUUUUUUUUUUUUU T
0U
UV
0W
b0 X
b0 Y
bUUUUUUUUUUUUUUUUUU Z
bUUUUUUUUUUUUUUUUUU [
bUUUUUUUUUUUUUUUUUU \
bXXXXXXXXXXXXXXXXXX ]
bXXXXXXXXXXXXXXXXXX ^
bXXXXXXXXXXXXXXXXXX _
b000000000000000000 `
b0 a
0b
Uc
bXXXXXXXXXXXXXXXXXX d
bUUUUUUUUUUUUUUUUUU e
0f
0g
bXXXXXXXXXXXXXXXXXX h
bUUUUUUUUUUUUUUUUUU i
0j
0k
bXXXXXXXXXXXXXXXXXX l
bUUUUUUUUUUUUUUUUUU m
0n
0o
#10000000000
1!
1"
b000001000000000000 %
b000000000000000000 &
b001000000000000000 '
bXXXXXXXXXXXXXXXXXX (
bXXXXXXXXXXXXXXXXXX )
bXXXXXXXXXXXXXXXXXX *
b1 +
b000001000000000000 ,
b000000000000000000 -
b001000000000000000 .
bXXXXXXXXXXXXXXXXXX /
bXXXXXXXXXXXXXXXXXX 0
bXXXXXXXXXXXXXXXXXX 1
12
13
b000001000000000000 6
b000000000000000000 7
b001000000000000000 8
bXXXXXXXXXXXXXXXXXX <
bXXXXXXXXXXXXXXXXXX =
bXXXXXXXXXXXXXXXXXX >
b001000000000000000 B
1C
b000001000000000000 E
b000000000000000000 F
b001000000000000000 G
b000001000000000000 H
b000000000000000000 I
b001000000000000000 J
b111111000000000000 L
b000000000000000000 M
b101000000000000000 N
b000001000000000000 O
b000000000000000000 P
b001000000000000000 Q
b000001000000000000 R
b000000000000000000 S
b001000000000000000 T
1U
1V
1W
b001000000000000000 `
bXXXXXXXXXXXXXXXXXX e
1f
1g
bXXXXXXXXXXXXXXXXXX i
1j
1k
bXXXXXXXXXXXXXXXXXX m
1n
1o
#20000000000
0!
03
b000001000000000000 9
b000000000000000000 :
b001000000000000000 ;
b000001000000000000 ?
b000001000000000000 @
b000000000000000000 A
0U
b000001000000000000 Z
b000000000000000000 [
b001000000000000000 \
b000001000000000000 ]
b000001000000000000 ^
b000000000000000000 _
0c
b000001000000000000 d
0f
b000001000000000000 h
0j
b000000000000000000 l
0n
#30000000000
1!
0"
b000000000000000000 (
b000000000000000000 )
b000000000000000000 *
b10 +
b000000000000000000 /
b000000000000000000 0
b000000000000000000 1
02
13
b000000000000000000 <
b000000000000000000 =
b000000000000000000 >
1U
0W
b000000000000000000 e
1f
0g
b000000000000000000 i
1j
0k
b000000000000000000 m
1n
0o
#40000000000
0!
03
0U
0f
0j
0n
#50000000000
1!
b000001000000000000 (
b000001000000000000 )
b11 +
b000001000000000000 /
b000001000000000000 0
13
b1 5
b000001000000000000 :
b000000000000000000 ;
b000001000000000000 <
b000001000000000000 =
b000000100000000000 ?
b000001100000000000 @
b111011010001110000 A
b000100101110010000 B
1U
b1 X
b1 Y
b000001000000000000 [
b000000000000000000 \
b000000100000000000 ]
b000001100000000000 ^
b111011010001110000 _
b000100101110010000 `
b1 a
b000000100000000000 d
b000001000000000000 e
1f
b000001100000000000 h
b000001000000000000 i
1j
b111011010001110000 l
1n
#60000000000
0!
03
0U
0f
0j
0n
#70000000000
1!
b000000100000000000 (
b000001100000000000 )
b111011010001110000 *
b100 +
b000000100000000000 /
b000001100000000000 0
b111011010001110000 1
13
b10 5
b000000100000000000 9
b000001100000000000 :
b111011010001110000 ;
b000000100000000000 <
b000001100000000000 =
b111011010001110000 >
b000000111000000000 ?
b000001011000000000 @
b111101110001011101 A
b000010011111101101 B
1U
b10 X
b10 Y
b000000100000000000 Z
b000001100000000000 [
b111011010001110000 \
b000000111000000000 ]
b000001011000000000 ^
b111101110001011101 _
b000010011111101101 `
b10 a
1c
b000000111000000000 d
b000000100000000000 e
1f
b000001011000000000 h
b000001100000000000 i
1j
b111101110001011101 l
b111011010001110000 m
1n
#80000000000
0!
03
0U
0f
0j
0n
#90000000000
1!
b000000111000000000 (
b000001011000000000 )
b111101110001011101 *
b101 +
b000000111000000000 /
b000001011000000000 0
b111101110001011101 1
13
b11 5
b000000111000000000 9
b000001011000000000 :
b111101110001011101 ;
b000000111000000000 <
b000001011000000000 =
b111101110001011101 >
b000001000011000000 ?
b000001010001000000 @
b111111000010100001 A
b000001010001000100 B
1U
b11 X
b11 Y
b000000111000000000 Z
b000001011000000000 [
b111101110001011101 \
b000001000011000000 ]
b000001010001000000 ^
b111111000010100001 _
b000001010001000100 `
b11 a
b000001000011000000 d
b000000111000000000 e
1f
b000001010001000000 h
b000001011000000000 i
1j
b111111000010100001 l
b111101110001011101 m
1n
#100000000000
0!
03
0U
0f
0j
0n
#110000000000
1!
b000001000011000000 (
b000001010001000000 )
b111111000010100001 *
b110 +
b000001000011000000 /
b000001010001000000 0
b111111000010100001 1
13
b100 5
b000001000011000000 9
b000001010001000000 :
b111111000010100001 ;
b000001000011000000 <
b000001010001000000 =
b111111000010100001 >
b000001001000000100 ?
b000001001100110100 @
b111111101011001101 A
b000000101000101100 B
1U
b100 X
b100 Y
b000001000011000000 Z
b000001010001000000 [
b111111000010100001 \
b000001001000000100 ]
b000001001100110100 ^
b111111101011001101 _
b000000101000101100 `
b100 a
b000001001000000100 d
b000001000011000000 e
1f
b000001001100110100 h
b000001010001000000 i
1j
b111111101011001101 l
b111111000010100001 m
1n
#120000000000
0!
03
0U
0f
0j
0n
#130000000000
1!
b000001001000000100 (
b000001001100110100 )
b111111101011001101 *
b111 +
b000001001000000100 /
b000001001100110100 0
b111111101011001101 1
13
b101 5
b000001001000000100 9
b000001001100110100 :
b111111101011001101 ;
b000001001000000100 <
b000001001100110100 =
b111111101011001101 >
b000001001010011101 ?
b000001001010100100 @
b111111111111100100 A
b000000010100010111 B
1U
b101 X
b101 Y
b000001001000000100 Z
b000001001100110100 [
b111111101011001101 \
b000001001010011101 ]
b000001001010100100 ^
b111111111111100100 _
b000000010100010111 `
b101 a
b000001001010011101 d
b000001001000000100 e
1f
b000001001010100100 h
b000001001100110100 i
1j
b111111111111100100 l
b111111101011001101 m
1n
#140000000000
0!
03
0U
0f
0j
0n
#150000000000
1!
b000001001010011101 (
b000001001010100100 )
b111111111111100100 *
b1000 +
b000001001010011101 /
b000001001010100100 0
b111111111111100100 1
13
b110 5
b000001001010011101 9
b000001001010100100 :
b111111111111100100 ;
b000001001010011101 <
b000001001010100100 =
b111111111111100100 >
b000001001011100111 ?
b000001001001011010 @
b000000001001110000 A
b000000001010001100 B
1U
b110 X
b110 Y
b000001001010011101 Z
b000001001010100100 [
b111111111111100100 \
b000001001011100111 ]
b000001001001011010 ^
b000000001001110000 _
b000000001010001100 `
b110 a
b000001001011100111 d
b000001001010011101 e
1f
b000001001001011010 h
b000001001010100100 i
1j
b000000001001110000 l
b111111111111100100 m
1n
#160000000000
0!
03
0U
0f
0j
0n
#170000000000
1!
b000001001011100111 (
b000001001001011010 )
b000000001001110000 *
b1001 +
b000001001011100111 /
b000001001001011010 0
b000000001001110000 1
13
b111 5
b000001001011100111 9
b000001001001011010 :
b000000001001110000 ;
b000001001011100111 <
b000001001001011010 =
b000000001001110000 >
b000001001011000011 ?
b000001001001111111 @
b000000000100101010 A
b000000000101000110 B
1U
b111 X
b111 Y
b000001001011100111 Z
b000001001001011010 [
b000000001001110000 \
b000001001011000011 ]
b000001001001111111 ^
b000000000100101010 _
b000000000101000110 `
b111 a
0c
b000001001011000011 d
b000001001011100111 e
1f
b000001001001111111 h
b000001001001011010 i
1j
b000000000100101010 l
b000000001001110000 m
1n
#180000000000
0!
03
0U
0f
0j
0n
#190000000000
1!
b000001001011000011 (
b000001001001111111 )
b000000000100101010 *
b1010 +
b000001001011000011 /
b000001001001111111 0
b000000000100101010 1
13
b1000 5
b000001001011000011 9
b000001001001111111 :
b000000000100101010 ;
b000001001011000011 <
b000001001001111111 =
b000000000100101010 >
b000001001010110001 ?
b000001001010010001 @
b000000000010000111 A
b000000000010100011 B
1U
b1000 X
b1000 Y
b000001001011000011 Z
b000001001001111111 [
b000000000100101010 \
b000001001010110001 ]
b000001001010010001 ^
b000000000010000111 _
b000000000010100011 `
b1000 a
b000001001010110001 d
b000001001011000011 e
1f
b000001001010010001 h
b000001001001111111 i
1j
b000000000010000111 l
b000000000100101010 m
1n
#200000000000
0!
03
0U
0f
0j
0n
#210000000000
1!
b000001001010110001 (
b000001001010010001 )
b000000000010000111 *
b1011 +
b000001001010110001 /
b000001001010010001 0
b000000000010000111 1
13
b1001 5
b000001001010110001 9
b000001001010010001 :
b000000000010000111 ;
b000001001010110001 <
b000001001010010001 =
b000000000010000111 >
b000001001010101000 ?
b000001001010011010 @
b000000000000110110 A
b000000000001010001 B
1U
b1001 X
b1001 Y
b000001001010110001 Z
b000001001010010001 [
b000000000010000111 \
b000001001010101000 ]
b000001001010011010 ^
b000000000000110110 _
b000000000001010001 `
b1001 a
b000001001010101000 d
b000001001010110001 e
1f
b000001001010011010 h
b000001001010010001 i
1j
b000000000000110110 l
b000000000010000111 m
1n
#220000000000
0!
03
0U
0f
0j
0n
#230000000000
1!
b000001001010101000 (
b000001001010011010 )
b000000000000110110 *
b1100 +
b000001001010101000 /
b000001001010011010 0
b000000000000110110 1
13
b1010 5
b000001001010101000 9
b000001001010011010 :
b000000000000110110 ;
b000001001010101000 <
b000001001010011010 =
b000000000000110110 >
b000001001010100100 ?
b000001001010011110 @
b000000000000001101 A
b000000000000101001 B
1U
b1010 X
b1010 Y
b000001001010101000 Z
b000001001010011010 [
b000000000000110110 \
b000001001010100100 ]
b000001001010011110 ^
b000000000000001101 _
b000000000000101001 `
b1010 a
b000001001010100100 d
b000001001010101000 e
1f
b000001001010011110 h
b000001001010011010 i
1j
b000000000000001101 l
b000000000000110110 m
1n
#240000000000
0!
03
0U
0f
0j
0n
#250000000000
1!
b000001001010100100 (
b000001001010011110 )
b000000000000001101 *
b1101 +
b000001001010100100 /
b000001001010011110 0
b000000000000001101 1
13
b1011 5
b000001001010100100 9
b000001001010011110 :
b000000000000001101 ;
b000001001010100100 <
b000001001010011110 =
b000000000000001101 >
b000001001010100010 ?
b000001001010100000 @
b111111111111111001 A
b000000000000010100 B
1U
b1011 X
b1011 Y
b000001001010100100 Z
b000001001010011110 [
b000000000000001101 \
b000001001010100010 ]
b000001001010100000 ^
b111111111111111001 _
b000000000000010100 `
b1011 a
b000001001010100010 d
b000001001010100100 e
1f
b000001001010100000 h
b000001001010011110 i
1j
b111111111111111001 l
b000000000000001101 m
1n
#260000000000
0!
03
0U
0f
0j
0n
#270000000000
1!
b000001001010100010 (
b000001001010100000 )
b111111111111111001 *
b1110 +
b000001001010100010 /
b000001001010100000 0
b111111111111111001 1
13
b1100 5
b000001001010100010 9
b000001001010100000 :
b111111111111111001 ;
b000001001010100010 <
b000001001010100000 =
b111111111111111001 >
b000001001010100011 ?
b000001001010011111 @
b000000000000000011 A
b000000000000001010 B
1U
b1100 X
b1100 Y
b000001001010100010 Z
b000001001010100000 [
b111111111111111001 \
b000001001010100011 ]
b000001001010011111 ^
b000000000000000011 _
b000000000000001010 `
b1100 a
1c
b000001001010100011 d
b000001001010100010 e
1f
b000001001010011111 h
b000001001010100000 i
1j
b000000000000000011 l
b111111111111111001 m
1n
#280000000000
0!
03
0U
0f
0j
0n
#290000000000
1!
b000001001010100011 (
b000001001010011111 )
b000000000000000011 *
b1111 +
b000001001010100011 /
b000001001010011111 0
b000000000000000011 1
13
b1101 5
b000001001010100011 9
b000001001010011111 :
b000000000000000011 ;
b000001001010100011 <
b000001001010011111 =
b000000000000000011 >
b000001001010100011 ?
b000001001010011111 @
b111111111111111110 A
b000000000000000101 B
1U
b1101 X
b1101 Y
b000001001010100011 Z
b000001001010011111 [
b000000000000000011 \
b000001001010100011 ]
b000001001010011111 ^
b111111111111111110 _
b000000000000000101 `
b1101 a
0c
b000001001010100011 d
b000001001010100011 e
1f
b000001001010011111 h
b000001001010011111 i
1j
b111111111111111110 l
b000000000000000011 m
1n
#300000000000
0!
03
0U
0f
0j
0n
#310000000000
1!
b111111111111111110 *
b10000 +
b111111111111111110 1
13
b1110 5
b111111111111111110 ;
b111111111111111110 >
b111111111111111110 A
b000000000000000000 B
0C
1U
0V
b1110 X
b1110 Y
b111111111111111110 \
b111111111111111110 _
b000000000000000000 `
b1110 a
1c
1f
1j
b111111111111111110 l
b111111111111111110 m
1n
#320000000000
0!
03
0U
0f
0j
0n
#330000000000
1!
b10001 +
13
1U
1f
1j
1n
#340000000000
0!
03
0U
0f
0j
0n
#350000000000
1!
b10010 +
13
1U
1f
1j
1n
#360000000000
0!
03
0U
0f
0j
0n
#370000000000
1!
b0 +
13
1U
1f
1j
1n
#380000000000
0!
03
0U
0f
0j
0n
#390000000000
1!
1"
b000000000000000000 %
b000001000000000000 &
b011000000000000000 '
b1 +
b000000000000000000 ,
b000001000000000000 -
b011000000000000000 .
12
13
b0 5
b000000000000000000 6
b111111000000000000 7
b111000000000000000 8
b000001000000000000 9
b000000000000000000 :
b001000000000000000 ;
b000001000000000000 ?
b000001000000000000 @
b001000000000000000 A
b000000000000000000 E
b000001000000000000 F
b011000000000000000 G
b000000000000000000 H
b111111000000000000 I
b111000000000000000 J
b000000000000000000 L
b111111000000000000 M
b111000000000000000 N
b000000000000000000 O
b111111000000000000 P
b111000000000000000 Q
b000000000000000000 R
b000001000000000000 S
b011000000000000000 T
1U
1W
b0 X
b000001000000000000 Z
b000000000000000000 [
b001000000000000000 \
b000001000000000000 ]
b000001000000000000 ^
b001000000000000000 _
b0 a
0c
b000001000000000000 d
1f
1g
b000001000000000000 h
1j
1k
b001000000000000000 l
1n
1o
#400000000000
0!
03
b000000000000000000 9
b111111000000000000 :
b111000000000000000 ;
b111111000000000000 ?
b111111000000000000 @
b111000000000000000 A
0U
b000000000000000000 Z
b111111000000000000 [
b111000000000000000 \
b111111000000000000 ]
b111111000000000000 ^
b111000000000000000 _
1c
b111111000000000000 d
0f
b111111000000000000 h
0j
b111000000000000000 l
0n
#410000000000
1!
0"
b000000000000000000 (
b000000000000000000 )
b000000000000000000 *
b10 +
b000000000000000000 /
b000000000000000000 0
b000000000000000000 1
02
13
b000000000000000000 <
b000000000000000000 =
b000000000000000000 >
1U
0W
b0 Y
b000000000000000000 e
1f
0g
b000000000000000000 i
1j
0k
b000000000000000000 m
1n
0o
#420000000000
0!
03
0U
0f
0j
0n
#430000000000
1!
b111111000000000000 (
b111111000000000000 )
b111000000000000000 *
b11 +
b111111000000000000 /
b111111000000000000 0
b111000000000000000 1
13
b111111000000000000 <
b111111000000000000 =
b111000000000000000 >
b000000000000000000 A
b001000000000000000 B
1C
1U
1V
b000000000000000000 _
b001000000000000000 `
b111111000000000000 e
1f
b111111000000000000 i
1j
b000000000000000000 l
b111000000000000000 m
1n
#440000000000
0!
03
0U
0f
0j
0n
#450000000000
1!
b000000000000000000 *
b100 +
b000000000000000000 1
13
b1 5
b111111000000000000 9
b000000000000000000 ;
b000000000000000000 >
b111111100000000000 ?
b111110100000000000 @
b111011010001110000 A
b000100101110010000 B
1U
b1 X
b1 Y
b111111000000000000 Z
b000000000000000000 \
b111111100000000000 ]
b111110100000000000 ^
b111011010001110000 _
b000100101110010000 `
b1 a
0c
b111111100000000000 d
1f
b111110100000000000 h
1j
b111011010001110000 l
b000000000000000000 m
1n
#460000000000
0!
03
0U
0f
0j
0n
#470000000000
1!
b111111100000000000 (
b111110100000000000 )
b111011010001110000 *
b101 +
b111111100000000000 /
b111110100000000000 0
b111011010001110000 1
13
b10 5
b111111100000000000 9
b111110100000000000 :
b111011010001110000 ;
b111111100000000000 <
b111110100000000000 =
b111011010001110000 >
b111111001000000000 ?
b111110101000000000 @
b111101110001011101 A
b000010011111101101 B
1U
b10 X
b10 Y
b111111100000000000 Z
b111110100000000000 [
b111011010001110000 \
b111111001000000000 ]
b111110101000000000 ^
b111101110001011101 _
b000010011111101101 `
b10 a
1c
b111111001000000000 d
b111111100000000000 e
1f
b111110101000000000 h
b111110100000000000 i
1j
b111101110001011101 l
b111011010001110000 m
1n
#480000000000
0!
03
0U
0f
0j
0n
#490000000000
1!
b111111001000000000 (
b111110101000000000 )
b111101110001011101 *
b110 +
b111111001000000000 /
b111110101000000000 0
b111101110001011101 1
13
b11 5
b111111001000000000 9
b111110101000000000 :
b111101110001011101 ;
b111111001000000000 <
b111110101000000000 =
b111101110001011101 >
b111110111101000000 ?
b111110101111000000 @
b111111000010100001 A
b000001010001000100 B
1U
b11 X
b11 Y
b111111001000000000 Z
b111110101000000000 [
b111101110001011101 \
b111110111101000000 ]
b111110101111000000 ^
b111111000010100001 _
b000001010001000100 `
b11 a
b111110111101000000 d
b111111001000000000 e
1f
b111110101111000000 h
b111110101000000000 i
1j
b111111000010100001 l
b111101110001011101 m
1n
#500000000000
0!
03
0U
0f
0j
0n
#510000000000
1!
b111110111101000000 (
b111110101111000000 )
b111111000010100001 *
b111 +
b111110111101000000 /
b111110101111000000 0
b111111000010100001 1
13
b100 5
b111110111101000000 9
b111110101111000000 :
b111111000010100001 ;
b111110111101000000 <
b111110101111000000 =
b111111000010100001 >
b111110110111111100 ?
b111110110011001100 @
b111111101011001101 A
b000000101000101100 B
1U
b100 X
b100 Y
b111110111101000000 Z
b111110101111000000 [
b111111000010100001 \
b111110110111111100 ]
b111110110011001100 ^
b111111101011001101 _
b000000101000101100 `
b100 a
b111110110111111100 d
b111110111101000000 e
1f
b111110110011001100 h
b111110101111000000 i
1j
b111111101011001101 l
b111111000010100001 m
1n
#520000000000
0!
03
0U
0f
0j
0n
#530000000000
1!
b111110110111111100 (
b111110110011001100 )
b111111101011001101 *
b1000 +
b111110110111111100 /
b111110110011001100 0
b111111101011001101 1
13
b101 5
b111110110111111100 9
b111110110011001100 :
b111111101011001101 ;
b111110110111111100 <
b111110110011001100 =
b111111101011001101 >
b111110110101100010 ?
b111110110101011101 @
b111111111111100100 A
b000000010100010111 B
1U
b101 X
b101 Y
b111110110111111100 Z
b111110110011001100 [
b111111101011001101 \
b111110110101100010 ]
b111110110101011101 ^
b111111111111100100 _
b000000010100010111 `
b101 a
b111110110101100010 d
b111110110111111100 e
1f
b111110110101011101 h
b111110110011001100 i
1j
b111111111111100100 l
b111111101011001101 m
1n
#540000000000
0!
03
0U
0f
0j
0n
#550000000000
1!
b111110110101100010 (
b111110110101011101 )
b111111111111100100 *
b1001 +
b111110110101100010 /
b111110110101011101 0
b111111111111100100 1
13
b110 5
b111110110101100010 9
b111110110101011101 :
b111111111111100100 ;
b111110110101100010 <
b111110110101011101 =
b111111111111100100 >
b111110110100010111 ?
b111110110110101000 @
b000000001001110000 A
b000000001010001100 B
1U
b110 X
b110 Y
b111110110101100010 Z
b111110110101011101 [
b111111111111100100 \
b111110110100010111 ]
b111110110110101000 ^
b000000001001110000 _
b000000001010001100 `
b110 a
b111110110100010111 d
b111110110101100010 e
1f
b111110110110101000 h
b111110110101011101 i
1j
b000000001001110000 l
b111111111111100100 m
1n
#560000000000
0!
03
0U
0f
0j
0n
#570000000000
1!
b111110110100010111 (
b111110110110101000 )
b000000001001110000 *
b1010 +
b111110110100010111 /
b111110110110101000 0
b000000001001110000 1
13
b111 5
b111110110100010111 9
b111110110110101000 :
b000000001001110000 ;
b111110110100010111 <
b111110110110101000 =
b000000001001110000 >
b111110110100111100 ?
b111110110110000010 @
b000000000100101010 A
b000000000101000110 B
1U
b111 X
b111 Y
b111110110100010111 Z
b111110110110101000 [
b000000001001110000 \
b111110110100111100 ]
b111110110110000010 ^
b000000000100101010 _
b000000000101000110 `
b111 a
0c
b111110110100111100 d
b111110110100010111 e
1f
b111110110110000010 h
b111110110110101000 i
1j
b000000000100101010 l
b000000001001110000 m
1n
#580000000000
0!
03
0U
0f
0j
0n
#590000000000
1!
b111110110100111100 (
b111110110110000010 )
b000000000100101010 *
b1011 +
b111110110100111100 /
b111110110110000010 0
b000000000100101010 1
13
b1000 5
b111110110100111100 9
b111110110110000010 :
b000000000100101010 ;
b111110110100111100 <
b111110110110000010 =
b000000000100101010 >
b111110110101001111 ?
b111110110101101111 @
b000000000010000111 A
b000000000010100011 B
1U
b1000 X
b1000 Y
b111110110100111100 Z
b111110110110000010 [
b000000000100101010 \
b111110110101001111 ]
b111110110101101111 ^
b000000000010000111 _
b000000000010100011 `
b1000 a
b111110110101001111 d
b111110110100111100 e
1f
b111110110101101111 h
b111110110110000010 i
1j
b000000000010000111 l
b000000000100101010 m
1n
#600000000000
0!
03
0U
0f
0j
0n
#610000000000
1!
b111110110101001111 (
b111110110101101111 )
b000000000010000111 *
b1100 +
b111110110101001111 /
b111110110101101111 0
b000000000010000111 1
13
b1001 5
b111110110101001111 9
b111110110101101111 :
b000000000010000111 ;
b111110110101001111 <
b111110110101101111 =
b000000000010000111 >
b111110110101011001 ?
b111110110101100101 @
b000000000000110110 A
b000000000001010001 B
1U
b1001 X
b1001 Y
b111110110101001111 Z
b111110110101101111 [
b000000000010000111 \
b111110110101011001 ]
b111110110101100101 ^
b000000000000110110 _
b000000000001010001 `
b1001 a
b111110110101011001 d
b111110110101001111 e
1f
b111110110101100101 h
b111110110101101111 i
1j
b000000000000110110 l
b000000000010000111 m
1n
#620000000000
0!
03
0U
0f
0j
0n
#630000000000
1!
b111110110101011001 (
b111110110101100101 )
b000000000000110110 *
b1101 +
b111110110101011001 /
b111110110101100101 0
b000000000000110110 1
13
b1010 5
b111110110101011001 9
b111110110101100101 :
b000000000000110110 ;
b111110110101011001 <
b111110110101100101 =
b000000000000110110 >
b111110110101011110 ?
b111110110101100000 @
b000000000000001101 A
b000000000000101001 B
1U
b1010 X
b1010 Y
b111110110101011001 Z
b111110110101100101 [
b000000000000110110 \
b111110110101011110 ]
b111110110101100000 ^
b000000000000001101 _
b000000000000101001 `
b1010 a
b111110110101011110 d
b111110110101011001 e
1f
b111110110101100000 h
b111110110101100101 i
1j
b000000000000001101 l
b000000000000110110 m
1n
#640000000000
0!
03
0U
0f
0j
0n
#650000000000
1!
b111110110101011110 (
b111110110101100000 )
b000000000000001101 *
b1110 +
b111110110101011110 /
b111110110101100000 0
b000000000000001101 1
13
b1011 5
b111110110101011110 9
b111110110101100000 :
b000000000000001101 ;
b111110110101011110 <
b111110110101100000 =
b000000000000001101 >
b111110110101100001 ?
b111110110101011101 @
b111111111111111001 A
b000000000000010100 B
1U
b1011 X
b1011 Y
b111110110101011110 Z
b111110110101100000 [
b000000000000001101 \
b111110110101100001 ]
b111110110101011101 ^
b111111111111111001 _
b000000000000010100 `
b1011 a
b111110110101100001 d
b111110110101011110 e
1f
b111110110101011101 h
b111110110101100000 i
1j
b111111111111111001 l
b000000000000001101 m
1n
#660000000000
0!
03
0U
0f
0j
0n
#670000000000
1!
b111110110101100001 (
b111110110101011101 )
b111111111111111001 *
b1111 +
b111110110101100001 /
b111110110101011101 0
b111111111111111001 1
13
b1100 5
b111110110101100001 9
b111110110101011101 :
b111111111111111001 ;
b111110110101100001 <
b111110110101011101 =
b111111111111111001 >
b111110110101011111 ?
b111110110101011111 @
b000000000000000011 A
b000000000000001010 B
1U
b1100 X
b1100 Y
b111110110101100001 Z
b111110110101011101 [
b111111111111111001 \
b111110110101011111 ]
b111110110101011111 ^
b000000000000000011 _
b000000000000001010 `
b1100 a
1c
b111110110101011111 d
b111110110101100001 e
1f
b111110110101011111 h
b111110110101011101 i
1j
b000000000000000011 l
b111111111111111001 m
1n
#680000000000
0!
03
0U
0f
0j
0n
#690000000000
1!
b111110110101011111 (
b111110110101011111 )
b000000000000000011 *
b10000 +
b111110110101011111 /
b111110110101011111 0
b000000000000000011 1
13
b1101 5
b111110110101011111 9
b111110110101011111 :
b000000000000000011 ;
b111110110101011111 <
b111110110101011111 =
b000000000000000011 >
b111110110101100000 ?
b111110110101011110 @
b111111111111111110 A
b000000000000000101 B
1U
b1101 X
b1101 Y
b111110110101011111 Z
b111110110101011111 [
b000000000000000011 \
b111110110101100000 ]
b111110110101011110 ^
b111111111111111110 _
b000000000000000101 `
b1101 a
0c
b111110110101100000 d
b111110110101011111 e
1f
b111110110101011110 h
b111110110101011111 i
1j
b111111111111111110 l
b000000000000000011 m
1n
#700000000000
0!
03
0U
0f
0j
0n
